\relax 
\citation{suryanarayana2014refactoring}
\citation{Garcia2009}
\citation{suryanarayana2014refactoring}
\citation{Garcia2009}
\citation{suryanarayana2014refactoring}
\citation{Garcia2009}
\citation{suryanarayana2014refactoring}
\citation{MacCormack2006}
\citation{Godfrey2000}
\citation{Schach2002}
\citation{Gurp2002}
\citation{Fowler1999}
\citation{Moha2010}
\citation{Macia2012b}
\citation{Abbes2011}
\citation{Isela2013}
\citation{Moha2010}
\citation{Sjoberg2013}
\citation{Yamashita2013}
\citation{tufano2015}
\citation{DAmbros2010}
\citation{Juergens2009}
\citation{Khomh2012}
\citation{Kim2005}
\citation{Lozano2008}
\citation{Olbrich2010}
\select@language{USenglish}
\@writefile{toc}{\select@language{USenglish}}
\@writefile{lof}{\select@language{USenglish}}
\@writefile{lot}{\select@language{USenglish}}
\@writefile{toc}{\contentsline {section}{\numberline {1}Introduction}{\thepage }}
\newlabel{introduction}{{1}{\thepage }}
\newlabel{introduction@cref}{{[section][1][]1}{\thepage }}
\citation{Schwanke:2013}
\citation{Wong:2011}
\citation{XiaoTitan:2014}
\citation{Fowler1999}
\citation{Fowler1999}
\citation{Lanza2005}
\citation{Macia2012a}
\citation{Macia2012}
\citation{Macia2012b}
\citation{ganesh2013}
\citation{suryanarayana2014refactoring}
\citation{Martin2003}
\citation{Perry1992}
\citation{Garcia2009}
\citation{Schach2002}
\citation{Yamashita2012}
\citation{Godfrey2000}
\citation{MacCormack2006}
\citation{Schach2002}
\citation{Gurp2002}
\citation{Lanza2005}
\citation{Mattmann2006}
\@writefile{toc}{\contentsline {section}{\numberline {2}Background}{\thepage }}
\newlabel{background}{{2}{\thepage }}
\newlabel{background@cref}{{[section][2][]2}{\thepage }}
\@writefile{toc}{\contentsline {subsection}{\numberline {2.1}Code Anomalies and Design Problems}{\thepage }}
\newlabel{concepts}{{2.1}{\thepage }}
\newlabel{concepts@cref}{{[subsection][1][2]2.1}{\thepage }}
\@writefile{toc}{\contentsline {subsection}{\numberline {2.2}Motivating Example}{\thepage }}
\newlabel{motivation}{{2.2}{\thepage }}
\newlabel{motivation@cref}{{[subsection][2][2]2.2}{\thepage }}
\citation{Abbes2011}
\citation{Moha2010}
\citation{Sjoberg2013}
\citation{Isela2013}
\citation{tufano2015}
\@writefile{toc}{\contentsline {section}{\numberline {3}Study Definition}{\thepage }}
\newlabel{study}{{3}{\thepage }}
\newlabel{study@cref}{{[section][3][]3}{\thepage }}
\@writefile{toc}{\contentsline {subsection}{\numberline {3.1}Research Questions}{\thepage }}
\newlabel{rq}{{3.1}{\thepage }}
\newlabel{rq@cref}{{[subsection][1][3]3.1}{\thepage }}
\@writefile{lof}{\contentsline {figure}{\numberline {1}{\ignorespaces Fat interface affecting Versioner implementation\relax }}{\thepage }}
\providecommand*\caption@xref[2]{\@setref\relax\@undefined{#1}}
\newlabel{alg:versioner}{{1}{\thepage }}
\newlabel{alg:versioner@cref}{{[figure][1][]1}{\thepage }}
\citation{opus}
\citation{Young2015}
\citation{Young2015}
\citation{Garcia2013}
\citation{Macia2012}
\@writefile{toc}{\contentsline {subsection}{\numberline {3.2}Syntactical Agglomerations}{\thepage }}
\newlabel{topologies}{{3.2}{\thepage }}
\newlabel{topologies@cref}{{[subsection][2][3]3.2}{\thepage }}
\newlabel{alg:syntactic}{{1}{\thepage }}
\newlabel{alg:syntactic@cref}{{[listing][1][]1}{\thepage }}
\@writefile{lol}{\contentsline {lstlisting}{\numberline {1}Inter-component Agglomeration Algorithm}{\thepage }}
\@writefile{toc}{\contentsline {subsection}{\numberline {3.3}Semantic Agglomerations}{\thepage }}
\newlabel{semantic}{{3.3}{\thepage }}
\newlabel{semantic@cref}{{[subsection][3][3]3.3}{\thepage }}
\citation{opus}
\citation{Soares2002}
\citation{Young2015}
\citation{Mattmann2006}
\@writefile{lof}{\contentsline {figure}{\numberline {2}{\ignorespaces Scattered Concern in Mobile Media\relax }}{\thepage }}
\newlabel{fig:tec:mobilemedia}{{2}{\thepage }}
\newlabel{fig:tec:mobilemedia@cref}{{[figure][2][]2}{\thepage }}
\@writefile{lot}{\contentsline {table}{\numberline {1}{\ignorespaces Characteristics of the Target Systems\relax }}{\thepage }}
\newlabel{tab:targetsystems}{{1}{\thepage }}
\newlabel{tab:targetsystems@cref}{{[table][1][]1}{\thepage }}
\newlabel{alg:concern-based}{{2}{\thepage }}
\newlabel{alg:concern-based@cref}{{[listing][2][]2}{\thepage }}
\@writefile{lol}{\contentsline {lstlisting}{\numberline {2}Semantic Agglomeration Algorithm}{\thepage }}
\@writefile{toc}{\contentsline {subsection}{\numberline {3.4}Target Systems}{\thepage }}
\newlabel{targetsystems}{{3.4}{\thepage }}
\newlabel{targetsystems@cref}{{[subsection][4][3]3.4}{\thepage }}
\citation{opus}
\citation{Garcia2013}
\citation{Isela2013}
\citation{McCallumMALLET}
\citation{Lanza2005}
\citation{Macia2012a}
\citation{Macia2012}
\citation{Macia2012b}
\citation{tufano2015}
\citation{Isela2013}
\citation{Macia2012}
\citation{Macia2012a}
\citation{opus}
\citation{Fisher1922}
\citation{Cornfield1951}
\citation{Bloomfield2014}
\@writefile{lot}{\contentsline {table}{\numberline {2}{\ignorespaces Analyzed Design Problems\relax }}{\thepage }}
\newlabel{tab:designproblems}{{2}{\thepage }}
\newlabel{tab:designproblems@cref}{{[table][2][]2}{\thepage }}
\@writefile{toc}{\contentsline {subsection}{\numberline {3.5}Data Collection Procedure}{\thepage }}
\newlabel{collection}{{3.5}{\thepage }}
\newlabel{collection@cref}{{[subsection][5][3]3.5}{\thepage }}
\@writefile{toc}{\contentsline {section}{\numberline {4}Results and Analysis}{\thepage }}
\newlabel{results}{{4}{\thepage }}
\newlabel{results@cref}{{[section][4][]4}{\thepage }}
\@writefile{toc}{\contentsline {subsection}{\numberline {4.1}Exploring Syntactic Agglomerations}{\thepage }}
\newlabel{exploring}{{4.1}{\thepage }}
\newlabel{exploring@cref}{{[subsection][1][4]4.1}{\thepage }}
\citation{Cornfield1951}
\@writefile{lot}{\contentsline {table}{\numberline {3}{\ignorespaces Contingency Table and Fisher's Test Results\relax }}{\thepage }}
\newlabel{tab:statistical}{{3}{\thepage }}
\newlabel{tab:statistical@cref}{{[table][3][]3}{\thepage }}
\@writefile{toc}{\contentsline {subsection}{\numberline {4.2}Do Syntactic Agglomerations Suffice?}{\thepage }}
\newlabel{suffice}{{4.2}{\thepage }}
\newlabel{suffice@cref}{{[subsection][2][4]4.2}{\thepage }}
\newlabel{eq-precision}{{1}{\thepage }}
\newlabel{eq-precision@cref}{{[equation][1][]1}{\thepage }}
\newlabel{eq-recall}{{2}{\thepage }}
\newlabel{eq-recall@cref}{{[equation][2][]2}{\thepage }}
\citation{Abbes2011}
\citation{Isela2013}
\citation{Moha2010}
\citation{Sjoberg2013}
\@writefile{lot}{\contentsline {table}{\numberline {4}{\ignorespaces Relation of Agglomerations and Design Problems: Precision and Recall\relax }}{\thepage }}
\newlabel{tab:comparison}{{4}{\thepage }}
\newlabel{tab:comparison@cref}{{[table][4][]4}{\thepage }}
\citation{opus}
\citation{Girba2007}
\citation{Schwanke:2013}
\citation{Wong:2011}
\citation{XiaoTitan:2014}
\citation{tufano2015}
\citation{Kim2005}
\citation{Lozano2008}
\citation{Olbrich2010}
\citation{Khomh2009}
\citation{Khomh2012}
\citation{Li2007}
\citation{DAmbros2010}
\citation{Khomh2012}
\citation{Juergens2009}
\citation{Kapser2008}
\citation{Sjoberg2013}
\@writefile{toc}{\contentsline {subsection}{\numberline {4.3}Agglomerations as Congenital Problems?}{\thepage }}
\newlabel{earlydetection}{{4.3}{\thepage }}
\newlabel{earlydetection@cref}{{[subsection][3][4]4.3}{\thepage }}
\@writefile{toc}{\contentsline {section}{\numberline {5}Related Work}{\thepage }}
\newlabel{relatedwork}{{5}{\thepage }}
\newlabel{relatedwork@cref}{{[section][5][]5}{\thepage }}
\citation{Abbes2011}
\citation{Yamashita2013}
\citation{Isela2013}
\citation{Kazman:2015}
\citation{Mo:2015}
\citation{Macia2012a}
\citation{Macia2012}
\citation{Macia2012b}
\citation{Macia2012}
\bibstyle{abbrv}
\bibdata{sigproc}
\@writefile{toc}{\contentsline {section}{\numberline {6}Threats to Validity}{\thepage }}
\newlabel{threats}{{6}{\thepage }}
\newlabel{threats@cref}{{[section][6][]6}{\thepage }}
\@writefile{toc}{\contentsline {section}{\numberline {7}Concluding Remarks}{\thepage }}
\newlabel{conclusion}{{7}{\thepage }}
\newlabel{conclusion@cref}{{[section][7][]7}{\thepage }}
\@writefile{toc}{\contentsline {section}{\numberline {8}Acknowledgments}{\thepage }}
\bibcite{Abbes2011}{1}
\bibcite{Isela2013}{2}
\bibcite{Bloomfield2014}{3}
\bibcite{Cornfield1951}{4}
\bibcite{DAmbros2010}{5}
\bibcite{Fisher1922}{6}
\bibcite{Fowler1999}{7}
\bibcite{ganesh2013}{8}
\bibcite{Garcia2013}{9}
\bibcite{Garcia2009}{10}
\bibcite{Girba2007}{11}
\bibcite{Godfrey2000}{12}
\bibcite{Juergens2009}{13}
\bibcite{Kapser2008}{14}
\bibcite{Kazman:2015}{15}
\bibcite{Khomh2009}{16}
\bibcite{Khomh2012}{17}
\bibcite{Kim2005}{18}
\bibcite{Lanza2005}{19}
\bibcite{Li2007}{20}
\bibcite{Lozano2008}{21}
\bibcite{MacCormack2006}{22}
\bibcite{Macia2012a}{23}
\bibcite{Macia2012}{24}
\bibcite{Macia2012b}{25}
\bibcite{Martin2003}{26}
\bibcite{Mattmann2006}{27}
\@writefile{toc}{\contentsline {section}{\numberline {9}References}{\thepage }}
\bibcite{McCallumMALLET}{28}
\bibcite{Mo:2015}{29}
\bibcite{Moha2010}{30}
\bibcite{opus}{31}
\bibcite{Olbrich2010}{32}
\bibcite{Perry1992}{33}
\bibcite{Schach2002}{34}
\bibcite{Schwanke:2013}{35}
\bibcite{Sjoberg2013}{36}
\bibcite{Soares2002}{37}
\bibcite{suryanarayana2014refactoring}{38}
\bibcite{tufano2015}{39}
\bibcite{Gurp2002}{40}
\bibcite{Wong:2011}{41}
\bibcite{XiaoTitan:2014}{42}
\bibcite{Yamashita2012}{43}
\bibcite{Yamashita2013}{44}
\bibcite{Young2015}{45}
