\BOOKMARK [1][-]{section.1}{Introduction}{}% 1
\BOOKMARK [1][-]{section.2}{Background}{}% 2
\BOOKMARK [2][-]{subsection.2.1}{Code Anomalies and Design Problems}{section.2}% 3
\BOOKMARK [2][-]{subsection.2.2}{Motivating Example}{section.2}% 4
\BOOKMARK [1][-]{section.3}{Study Definition}{}% 5
\BOOKMARK [2][-]{subsection.3.1}{Research Questions}{section.3}% 6
\BOOKMARK [2][-]{subsection.3.2}{Syntactical Agglomerations}{section.3}% 7
\BOOKMARK [2][-]{subsection.3.3}{Semantic Agglomerations}{section.3}% 8
\BOOKMARK [2][-]{subsection.3.4}{Target Systems}{section.3}% 9
\BOOKMARK [2][-]{subsection.3.5}{Data Collection Procedure}{section.3}% 10
\BOOKMARK [1][-]{section.4}{Results and Analysis}{}% 11
\BOOKMARK [2][-]{subsection.4.1}{Exploring Syntactic Agglomerations}{section.4}% 12
\BOOKMARK [2][-]{subsection.4.2}{Do Syntactic Agglomerations Suffice?}{section.4}% 13
\BOOKMARK [2][-]{subsection.4.3}{Agglomerations as Congenital Problems?}{section.4}% 14
\BOOKMARK [1][-]{section.5}{Related Work}{}% 15
\BOOKMARK [1][-]{section.6}{Threats to Validity}{}% 16
\BOOKMARK [1][-]{section.7}{Concluding Remarks}{}% 17
\BOOKMARK [1][-]{section.8}{Acknowledgments}{}% 18
\BOOKMARK [1][-]{section.9}{References}{}% 19
