<?xml version="1.0" encoding="UTF-8" standalone="no"?>
<graphml xmlns="http://graphml.graphdrawing.org/xmlns" xmlns:java="http://www.yworks.com/xml/yfiles-common/1.0/java" xmlns:sys="http://www.yworks.com/xml/yfiles-common/markup/primitives/2.0" xmlns:x="http://www.yworks.com/xml/yfiles-common/markup/2.0" xmlns:xsi="http://www.w3.org/2001/XMLSchema-instance" xmlns:y="http://www.yworks.com/xml/graphml" xmlns:yed="http://www.yworks.com/xml/yed/3" xsi:schemaLocation="http://graphml.graphdrawing.org/xmlns http://www.yworks.com/xml/schema/graphml/1.1/ygraphml.xsd">
  <!--Created by yEd 3.14.2-->
  <key attr.name="Description" attr.type="string" for="graph" id="d0"/>
  <key for="port" id="d1" yfiles.type="portgraphics"/>
  <key for="port" id="d2" yfiles.type="portgeometry"/>
  <key for="port" id="d3" yfiles.type="portuserdata"/>
  <key attr.name="url" attr.type="string" for="node" id="d4"/>
  <key attr.name="description" attr.type="string" for="node" id="d5"/>
  <key for="node" id="d6" yfiles.type="nodegraphics"/>
  <key for="graphml" id="d7" yfiles.type="resources"/>
  <key attr.name="url" attr.type="string" for="edge" id="d8"/>
  <key attr.name="description" attr.type="string" for="edge" id="d9"/>
  <key for="edge" id="d10" yfiles.type="edgegraphics"/>
  <graph edgedefault="directed" id="G">
    <data key="d0"/>
    <node id="n0" yfiles.foldertype="group">
      <data key="d6">
        <y:ProxyAutoBoundsNode>
          <y:Realizers active="0">
            <y:GenericGroupNode configuration="com.yworks.bpmn.Artifact.withShadow">
              <y:Geometry height="548.9725913258726" width="1401.1060540445274" x="250.10649106504468" y="-1886.9963429229251"/>
              <y:Fill color="#FFFFFFE6" transparent="false"/>
              <y:BorderStyle color="#000000" type="line" width="2.0"/>
              <y:NodeLabel alignment="center" autoSizePolicy="content" fontFamily="Dialog" fontSize="12" fontStyle="plain" hasBackgroundColor="false" hasLineColor="false" hasText="false" height="4.0" modelName="custom" textColor="#000000" visible="true" width="4.0" x="698.5530270222637" y="540.9725913258726">
                <y:LabelModel>
                  <y:SmartNodeLabelModel distance="4.0"/>
                </y:LabelModel>
                <y:ModelParameter>
                  <y:SmartNodeLabelModelParameter labelRatioX="0.0" labelRatioY="0.5" nodeRatioX="0.0" nodeRatioY="0.5" offsetX="0.0" offsetY="-4.0" upX="0.0" upY="-1.0"/>
                </y:ModelParameter>
              </y:NodeLabel>
              <y:StyleProperties>
                <y:Property class="java.awt.Color" name="com.yworks.bpmn.icon.line.color" value="#000000"/>
                <y:Property class="java.awt.Color" name="com.yworks.bpmn.icon.fill2" value="#d4d4d4cc"/>
                <y:Property class="java.awt.Color" name="com.yworks.bpmn.icon.fill" value="#ffffffe6"/>
                <y:Property class="com.yworks.yfiles.bpmn.view.BPMNTypeEnum" name="com.yworks.bpmn.type" value="ARTIFACT_TYPE_GROUP"/>
              </y:StyleProperties>
              <y:State autoResize="true" closed="false" closedHeight="80.0" closedWidth="100.0"/>
              <y:Insets bottom="15" bottomF="15.0" left="15" leftF="15.0" right="15" rightF="15.0" top="15" topF="15.0"/>
              <y:BorderInsets bottom="0" bottomF="0.0" left="7" leftF="7.302594328898522" right="74" rightF="73.72584791983309" top="23" topF="23.084196755042285"/>
            </y:GenericGroupNode>
            <y:GenericGroupNode configuration="com.yworks.bpmn.Artifact.withShadow">
              <y:Geometry height="55.0" width="85.0" x="28.693206454409392" y="265.7496980302277"/>
              <y:Fill color="#FFFFFFE6" transparent="false"/>
              <y:BorderStyle color="#000000" type="dashed_dotted" width="1.0"/>
              <y:NodeLabel alignment="center" autoSizePolicy="content" fontFamily="Dialog" fontSize="12" fontStyle="plain" hasBackgroundColor="false" hasLineColor="false" hasText="false" height="4.0" modelName="custom" textColor="#000000" visible="true" width="4.0" x="40.5" y="47.0">
                <y:LabelModel>
                  <y:SmartNodeLabelModel distance="4.0"/>
                </y:LabelModel>
                <y:ModelParameter>
                  <y:SmartNodeLabelModelParameter labelRatioX="0.0" labelRatioY="0.5" nodeRatioX="0.0" nodeRatioY="0.5" offsetX="0.0" offsetY="-4.0" upX="0.0" upY="-1.0"/>
                </y:ModelParameter>
              </y:NodeLabel>
              <y:StyleProperties>
                <y:Property class="java.awt.Color" name="com.yworks.bpmn.icon.line.color" value="#000000"/>
                <y:Property class="java.awt.Color" name="com.yworks.bpmn.icon.fill2" value="#d4d4d4cc"/>
                <y:Property class="java.awt.Color" name="com.yworks.bpmn.icon.fill" value="#ffffffe6"/>
                <y:Property class="com.yworks.yfiles.bpmn.view.BPMNTypeEnum" name="com.yworks.bpmn.type" value="ARTIFACT_TYPE_GROUP"/>
              </y:StyleProperties>
              <y:State autoResize="true" closed="false" closedHeight="80.0" closedWidth="100.0"/>
              <y:Insets bottom="15" bottomF="15.0" left="15" leftF="15.0" right="15" rightF="15.0" top="15" topF="15.0"/>
              <y:BorderInsets bottom="0" bottomF="0.0" left="0" leftF="0.0" right="0" rightF="0.0" top="0" topF="0.0"/>
            </y:GenericGroupNode>
          </y:Realizers>
        </y:ProxyAutoBoundsNode>
      </data>
      <graph edgedefault="directed" id="n0:">
        <node id="n0::n0">
          <data key="d6">
            <y:GenericNode configuration="com.yworks.entityRelationship.big_entity">
              <y:Geometry height="119.46236737400534" width="286.78808593749994" x="1275.6986112522388" y="-1682.0607493033435"/>
              <y:Fill color="#FFFFFF" transparent="false"/>
              <y:BorderStyle color="#000000" type="line" width="1.0"/>
              <y:NodeLabel alignment="center" autoSizePolicy="content" configuration="com.yworks.entityRelationship.label.name" fontFamily="Dialog" fontSize="30" fontStyle="plain" hasBackgroundColor="false" hasLineColor="false" height="39.33203125" modelName="internal" modelPosition="t" textColor="#000000" visible="true" width="279.244140625" x="3.77197265625" y="4.0">MediaListControler</y:NodeLabel>
              <y:NodeLabel alignment="left" autoSizePolicy="content" configuration="com.yworks.entityRelationship.label.attributes" fontFamily="Dialog" fontSize="12" fontStyle="plain" hasBackgroundColor="false" hasLineColor="false" hasText="false" height="4.0" modelName="custom" textColor="#000000" visible="true" width="4.0" x="2.0" y="51.33203125">
                <y:LabelModel>
                  <y:ErdAttributesNodeLabelModel/>
                </y:LabelModel>
                <y:ModelParameter>
                  <y:ErdAttributesNodeLabelModelParameter/>
                </y:ModelParameter>
              </y:NodeLabel>
              <y:StyleProperties>
                <y:Property class="java.lang.Boolean" name="y.view.ShadowNodePainter.SHADOW_PAINTING" value="true"/>
              </y:StyleProperties>
            </y:GenericNode>
          </data>
        </node>
        <node id="n0::n1">
          <data key="d6">
            <y:GenericNode configuration="com.yworks.entityRelationship.big_entity">
              <y:Geometry height="104.73889257294434" width="408.9376812616428" x="723.4002172290767" y="-1848.9121461678828"/>
              <y:Fill color="#FFFFFF" transparent="false"/>
              <y:BorderStyle color="#000000" type="line" width="1.0"/>
              <y:NodeLabel alignment="center" autoSizePolicy="content" configuration="com.yworks.entityRelationship.label.name" fontFamily="Dialog" fontSize="30" fontStyle="plain" hasBackgroundColor="false" hasLineColor="false" height="39.33203125" modelName="internal" modelPosition="t" textColor="#000000" visible="true" width="271.5830078125" x="68.67733672457143" y="4.0">AbstractController</y:NodeLabel>
              <y:NodeLabel alignment="left" autoSizePolicy="content" configuration="com.yworks.entityRelationship.label.attributes" fontFamily="Dialog" fontSize="12" fontStyle="plain" hasBackgroundColor="false" hasLineColor="false" hasText="false" height="4.0" modelName="custom" textColor="#000000" visible="true" width="4.0" x="2.0" y="51.33203125">
                <y:LabelModel>
                  <y:ErdAttributesNodeLabelModel/>
                </y:LabelModel>
                <y:ModelParameter>
                  <y:ErdAttributesNodeLabelModelParameter/>
                </y:ModelParameter>
              </y:NodeLabel>
              <y:StyleProperties>
                <y:Property class="java.lang.Boolean" name="y.view.ShadowNodePainter.SHADOW_PAINTING" value="true"/>
              </y:StyleProperties>
            </y:GenericNode>
          </data>
        </node>
        <node id="n0::n2">
          <data key="d6">
            <y:GenericNode configuration="com.yworks.entityRelationship.big_entity">
              <y:Geometry height="119.46236737400534" width="245.7899295608458" x="779.4583156779787" y="-1472.4861189710577"/>
              <y:Fill color="#FFFFFF" transparent="false"/>
              <y:BorderStyle color="#000000" type="line" width="1.0"/>
              <y:NodeLabel alignment="center" autoSizePolicy="content" configuration="com.yworks.entityRelationship.label.name" fontFamily="Dialog" fontSize="30" fontStyle="plain" hasBackgroundColor="false" hasLineColor="false" height="39.33203125" modelName="internal" modelPosition="t" textColor="#000000" visible="true" width="228.0625" x="8.863714780422924" y="4.0">MediaControler</y:NodeLabel>
              <y:NodeLabel alignment="left" autoSizePolicy="content" configuration="com.yworks.entityRelationship.label.attributes" fontFamily="Dialog" fontSize="12" fontStyle="plain" hasBackgroundColor="false" hasLineColor="false" hasText="false" height="4.0" modelName="custom" textColor="#000000" visible="true" width="4.0" x="2.0" y="51.33203125">
                <y:LabelModel>
                  <y:ErdAttributesNodeLabelModel/>
                </y:LabelModel>
                <y:ModelParameter>
                  <y:ErdAttributesNodeLabelModelParameter/>
                </y:ModelParameter>
              </y:NodeLabel>
              <y:StyleProperties>
                <y:Property class="java.lang.Boolean" name="y.view.ShadowNodePainter.SHADOW_PAINTING" value="true"/>
              </y:StyleProperties>
            </y:GenericNode>
          </data>
        </node>
        <node id="n0::n3">
          <data key="d6">
            <y:GenericNode configuration="com.yworks.entityRelationship.big_entity">
              <y:Geometry height="119.46236737400534" width="290.26843777829214" x="294.9648794049095" y="-1707.53397554892"/>
              <y:Fill color="#FFFFFF" transparent="false"/>
              <y:BorderStyle color="#000000" type="line" width="1.0"/>
              <y:NodeLabel alignment="center" autoSizePolicy="content" configuration="com.yworks.entityRelationship.label.name" fontFamily="Dialog" fontSize="30" fontStyle="plain" hasBackgroundColor="false" hasLineColor="false" height="39.33203125" modelName="internal" modelPosition="t" textColor="#000000" visible="true" width="291.34375" x="-0.5376561108539022" y="4.0">MusicPlayController</y:NodeLabel>
              <y:NodeLabel alignment="left" autoSizePolicy="content" configuration="com.yworks.entityRelationship.label.attributes" fontFamily="Dialog" fontSize="12" fontStyle="plain" hasBackgroundColor="false" hasLineColor="false" hasText="false" height="4.0" modelName="custom" textColor="#000000" visible="true" width="4.0" x="2.0" y="51.33203125">
                <y:LabelModel>
                  <y:ErdAttributesNodeLabelModel/>
                </y:LabelModel>
                <y:ModelParameter>
                  <y:ErdAttributesNodeLabelModelParameter/>
                </y:ModelParameter>
              </y:NodeLabel>
              <y:StyleProperties>
                <y:Property class="java.lang.Boolean" name="y.view.ShadowNodePainter.SHADOW_PAINTING" value="true"/>
              </y:StyleProperties>
            </y:GenericNode>
          </data>
        </node>
        <node id="n0::n4">
          <data key="d6">
            <y:GenericNode configuration="com.yworks.entityRelationship.big_entity">
              <y:Geometry height="119.46236737400528" width="326.95556954068473" x="802.0235591000325" y="-1682.0607493033435"/>
              <y:Fill color="#FFFFFF" transparent="false"/>
              <y:BorderStyle color="#000000" type="line" width="1.0"/>
              <y:NodeLabel alignment="center" autoSizePolicy="content" configuration="com.yworks.entityRelationship.label.name" fontFamily="Dialog" fontSize="30" fontStyle="plain" hasBackgroundColor="false" hasLineColor="false" height="39.33203125" modelName="internal" modelPosition="t" textColor="#000000" visible="true" width="289.8642578125" x="18.545655864092396" y="4.0">PlayVideoController</y:NodeLabel>
              <y:NodeLabel alignment="left" autoSizePolicy="content" configuration="com.yworks.entityRelationship.label.attributes" fontFamily="Dialog" fontSize="12" fontStyle="plain" hasBackgroundColor="false" hasLineColor="false" hasText="false" height="4.0" modelName="custom" textColor="#000000" visible="true" width="4.0" x="2.0" y="51.33203125">
                <y:LabelModel>
                  <y:ErdAttributesNodeLabelModel/>
                </y:LabelModel>
                <y:ModelParameter>
                  <y:ErdAttributesNodeLabelModelParameter/>
                </y:ModelParameter>
              </y:NodeLabel>
              <y:StyleProperties>
                <y:Property class="java.lang.Boolean" name="y.view.ShadowNodePainter.SHADOW_PAINTING" value="true"/>
              </y:StyleProperties>
            </y:GenericNode>
          </data>
        </node>
        <node id="n0::n5">
          <data key="d6">
            <y:GenericNode configuration="com.yworks.entityRelationship.big_entity">
              <y:Geometry height="119.46236737400528" width="347.70904460509365" x="272.4090853939432" y="-1848.9121461678828"/>
              <y:Fill color="#FFFFFF" transparent="false"/>
              <y:BorderStyle color="#000000" type="line" width="1.0"/>
              <y:NodeLabel alignment="center" autoSizePolicy="content" configuration="com.yworks.entityRelationship.label.name" fontFamily="Dialog" fontSize="30" fontStyle="plain" hasBackgroundColor="false" hasLineColor="false" height="39.33203125" modelName="internal" modelPosition="t" textColor="#000000" visible="true" width="347.4033203125" x="0.15286214629679762" y="4.0">VideoCaptureController</y:NodeLabel>
              <y:NodeLabel alignment="left" autoSizePolicy="content" configuration="com.yworks.entityRelationship.label.attributes" fontFamily="Dialog" fontSize="12" fontStyle="plain" hasBackgroundColor="false" hasLineColor="false" hasText="false" height="4.0" modelName="custom" textColor="#000000" visible="true" width="4.0" x="2.0" y="51.33203125">
                <y:LabelModel>
                  <y:ErdAttributesNodeLabelModel/>
                </y:LabelModel>
                <y:ModelParameter>
                  <y:ErdAttributesNodeLabelModelParameter/>
                </y:ModelParameter>
              </y:NodeLabel>
              <y:StyleProperties>
                <y:Property class="java.lang.Boolean" name="y.view.ShadowNodePainter.SHADOW_PAINTING" value="true"/>
              </y:StyleProperties>
            </y:GenericNode>
          </data>
        </node>
        <node id="n0::n6">
          <data key="d6">
            <y:GenericNode configuration="com.yworks.entityRelationship.big_entity">
              <y:Geometry height="119.46236737400528" width="295.05604556590276" x="419.3082882008047" y="-1558.0716081749147"/>
              <y:Fill color="#FFFFFF" transparent="false"/>
              <y:BorderStyle color="#000000" type="line" width="1.0"/>
              <y:NodeLabel alignment="center" autoSizePolicy="content" configuration="com.yworks.entityRelationship.label.name" fontFamily="Dialog" fontSize="30" fontStyle="plain" hasBackgroundColor="false" hasLineColor="false" height="39.33203125" modelName="internal" modelPosition="tr" textColor="#000000" visible="true" width="292.779296875" x="-1.7232513090972361" y="4.0">PhotoViewControler</y:NodeLabel>
              <y:NodeLabel alignment="left" autoSizePolicy="content" configuration="com.yworks.entityRelationship.label.attributes" fontFamily="Dialog" fontSize="12" fontStyle="plain" hasBackgroundColor="false" hasLineColor="false" hasText="false" height="4.0" modelName="custom" textColor="#000000" visible="true" width="4.0" x="2.0" y="51.33203125">
                <y:LabelModel>
                  <y:ErdAttributesNodeLabelModel/>
                </y:LabelModel>
                <y:ModelParameter>
                  <y:ErdAttributesNodeLabelModelParameter/>
                </y:ModelParameter>
              </y:NodeLabel>
              <y:StyleProperties>
                <y:Property class="java.lang.Boolean" name="y.view.ShadowNodePainter.SHADOW_PAINTING" value="true"/>
              </y:StyleProperties>
            </y:GenericNode>
          </data>
        </node>
        <node id="n0::n7">
          <data key="d6">
            <y:ShapeNode>
              <y:Geometry height="54.53912466843508" width="54.53912466843508" x="455.23554370618126" y="-1505.979384669647"/>
              <y:Fill color="#FF0000" transparent="false"/>
              <y:BorderStyle color="#000000" type="line" width="1.0"/>
              <y:NodeLabel alignment="center" autoSizePolicy="content" fontFamily="Dialog" fontSize="40" fontStyle="plain" hasBackgroundColor="false" hasLineColor="false" height="51.109375" modelName="custom" textColor="#000000" visible="true" width="29.29296875" x="12.62307795921754" y="1.7148748342176532">2<y:LabelModel>
                  <y:SmartNodeLabelModel distance="4.0"/>
                </y:LabelModel>
                <y:ModelParameter>
                  <y:SmartNodeLabelModelParameter labelRatioX="0.0" labelRatioY="0.0" nodeRatioX="0.0" nodeRatioY="0.0" offsetX="0.0" offsetY="0.0" upX="0.0" upY="-1.0"/>
                </y:ModelParameter>
              </y:NodeLabel>
              <y:Shape type="ellipse"/>
            </y:ShapeNode>
          </data>
        </node>
        <node id="n0::n8">
          <data key="d6">
            <y:ShapeNode>
              <y:Geometry height="54.53912466843508" width="54.53912466843508" x="605.093308088047" y="-1505.979384669647"/>
              <y:Fill color="#99CC00" transparent="false"/>
              <y:BorderStyle color="#000000" type="line" width="1.0"/>
              <y:NodeLabel alignment="center" autoSizePolicy="content" fontFamily="Dialog" fontSize="40" fontStyle="plain" hasBackgroundColor="false" hasLineColor="false" height="51.109375" modelName="custom" textColor="#000000" visible="true" width="29.29296875" x="12.62307795921754" y="1.7148748342176532">2<y:LabelModel>
                  <y:SmartNodeLabelModel distance="4.0"/>
                </y:LabelModel>
                <y:ModelParameter>
                  <y:SmartNodeLabelModelParameter labelRatioX="0.0" labelRatioY="0.0" nodeRatioX="0.0" nodeRatioY="0.0" offsetX="0.0" offsetY="0.0" upX="0.0" upY="-1.0"/>
                </y:ModelParameter>
              </y:NodeLabel>
              <y:Shape type="ellipse"/>
            </y:ShapeNode>
          </data>
        </node>
        <node id="n0::n9">
          <data key="d6">
            <y:ShapeNode>
              <y:Geometry height="54.53912466843508" width="54.53912466843508" x="348.39800203449227" y="-1652.6508785276635"/>
              <y:Fill color="#FF0000" transparent="false"/>
              <y:BorderStyle color="#000000" type="line" width="1.0"/>
              <y:NodeLabel alignment="center" autoSizePolicy="content" fontFamily="Dialog" fontSize="40" fontStyle="plain" hasBackgroundColor="false" hasLineColor="false" height="51.109375" modelName="custom" textColor="#000000" visible="true" width="29.29296875" x="12.62307795921754" y="1.7148748342176532">1<y:LabelModel>
                  <y:SmartNodeLabelModel distance="4.0"/>
                </y:LabelModel>
                <y:ModelParameter>
                  <y:SmartNodeLabelModelParameter labelRatioX="0.0" labelRatioY="0.0" nodeRatioX="0.0" nodeRatioY="0.0" offsetX="0.0" offsetY="0.0" upX="0.0" upY="-1.0"/>
                </y:ModelParameter>
              </y:NodeLabel>
              <y:Shape type="ellipse"/>
            </y:ShapeNode>
          </data>
        </node>
        <node id="n0::n10">
          <data key="d6">
            <y:ShapeNode>
              <y:Geometry height="54.53912466843508" width="54.53912466843508" x="457.8880769328624" y="-1652.6508785276633"/>
              <y:Fill color="#99CC00" transparent="false"/>
              <y:BorderStyle color="#000000" type="line" width="1.0"/>
              <y:NodeLabel alignment="center" autoSizePolicy="content" fontFamily="Dialog" fontSize="40" fontStyle="plain" hasBackgroundColor="false" hasLineColor="false" height="51.109375" modelName="custom" textColor="#000000" visible="true" width="29.29296875" x="12.62307795921754" y="1.7148748342174258">2<y:LabelModel>
                  <y:SmartNodeLabelModel distance="4.0"/>
                </y:LabelModel>
                <y:ModelParameter>
                  <y:SmartNodeLabelModelParameter labelRatioX="0.0" labelRatioY="0.0" nodeRatioX="0.0" nodeRatioY="0.0" offsetX="0.0" offsetY="0.0" upX="0.0" upY="-1.0"/>
                </y:ModelParameter>
              </y:NodeLabel>
              <y:Shape type="ellipse"/>
            </y:ShapeNode>
          </data>
        </node>
        <node id="n0::n11">
          <data key="d6">
            <y:ShapeNode>
              <y:Geometry height="54.53912466843508" width="54.53912466843508" x="1010.4962481836707" y="-1627.182689338718"/>
              <y:Fill color="#FF0000" transparent="false"/>
              <y:BorderStyle color="#000000" type="line" width="1.0"/>
              <y:NodeLabel alignment="center" autoSizePolicy="content" fontFamily="Dialog" fontSize="40" fontStyle="plain" hasBackgroundColor="false" hasLineColor="false" height="51.109375" modelName="custom" textColor="#000000" visible="true" width="29.29296875" x="12.62307795921754" y="1.7148748342176532">1<y:LabelModel>
                  <y:SmartNodeLabelModel distance="4.0"/>
                </y:LabelModel>
                <y:ModelParameter>
                  <y:SmartNodeLabelModelParameter labelRatioX="0.0" labelRatioY="0.0" nodeRatioX="0.0" nodeRatioY="0.0" offsetX="0.0" offsetY="0.0" upX="0.0" upY="-1.0"/>
                </y:ModelParameter>
              </y:NodeLabel>
              <y:Shape type="ellipse"/>
            </y:ShapeNode>
          </data>
        </node>
        <node id="n0::n12">
          <data key="d6">
            <y:ShapeNode>
              <y:Geometry height="54.53912466843508" width="54.53912466843508" x="852.2393575599169" y="-1627.182689338718"/>
              <y:Fill color="#99CC00" transparent="false"/>
              <y:BorderStyle color="#000000" type="line" width="1.0"/>
              <y:NodeLabel alignment="center" autoSizePolicy="content" fontFamily="Dialog" fontSize="40" fontStyle="plain" hasBackgroundColor="false" hasLineColor="false" height="51.109375" modelName="custom" textColor="#000000" visible="true" width="29.29296875" x="12.62307795921754" y="1.7148748342174258">2<y:LabelModel>
                  <y:SmartNodeLabelModel distance="4.0"/>
                </y:LabelModel>
                <y:ModelParameter>
                  <y:SmartNodeLabelModelParameter labelRatioX="0.0" labelRatioY="0.0" nodeRatioX="0.0" nodeRatioY="0.0" offsetX="0.0" offsetY="0.0" upX="0.0" upY="-1.0"/>
                </y:ModelParameter>
              </y:NodeLabel>
              <y:Shape type="ellipse"/>
            </y:ShapeNode>
          </data>
        </node>
        <node id="n0::n13">
          <data key="d6">
            <y:ShapeNode>
              <y:Geometry height="54.53912466843508" width="54.53912466843508" x="929.0312849193149" y="-1416.7110621442835"/>
              <y:Fill color="#FF0000" transparent="false"/>
              <y:BorderStyle color="#000000" type="line" width="1.0"/>
              <y:NodeLabel alignment="center" autoSizePolicy="content" fontFamily="Dialog" fontSize="40" fontStyle="plain" hasBackgroundColor="false" hasLineColor="false" height="51.109375" modelName="custom" textColor="#000000" visible="true" width="54.5859375" x="-0.0234064157824605" y="1.7148748342174258">13<y:LabelModel>
                  <y:SmartNodeLabelModel distance="4.0"/>
                </y:LabelModel>
                <y:ModelParameter>
                  <y:SmartNodeLabelModelParameter labelRatioX="0.0" labelRatioY="0.0" nodeRatioX="0.0" nodeRatioY="0.0" offsetX="0.0" offsetY="0.0" upX="0.0" upY="-1.0"/>
                </y:ModelParameter>
              </y:NodeLabel>
              <y:Shape type="ellipse"/>
            </y:ShapeNode>
          </data>
        </node>
        <node id="n0::n14">
          <data key="d6">
            <y:ShapeNode>
              <y:Geometry height="54.53912466843508" width="54.53912466843508" x="827.146338669771" y="-1416.7110621442835"/>
              <y:Fill color="#99CC00" transparent="false"/>
              <y:BorderStyle color="#000000" type="line" width="1.0"/>
              <y:NodeLabel alignment="center" autoSizePolicy="content" fontFamily="Dialog" fontSize="40" fontStyle="plain" hasBackgroundColor="false" hasLineColor="false" height="51.109375" modelName="custom" textColor="#000000" visible="true" width="29.29296875" x="12.62307795921754" y="1.7148748342174258">2<y:LabelModel>
                  <y:SmartNodeLabelModel distance="4.0"/>
                </y:LabelModel>
                <y:ModelParameter>
                  <y:SmartNodeLabelModelParameter labelRatioX="0.0" labelRatioY="0.0" nodeRatioX="0.0" nodeRatioY="0.0" offsetX="0.0" offsetY="0.0" upX="0.0" upY="-1.0"/>
                </y:ModelParameter>
              </y:NodeLabel>
              <y:Shape type="ellipse"/>
            </y:ShapeNode>
          </data>
        </node>
        <node id="n0::n15">
          <data key="d6">
            <y:ShapeNode>
              <y:Geometry height="54.53912466843508" width="54.53912466843508" x="1468.0173606994724" y="-1629.5028502495343"/>
              <y:Fill color="#FF0000" transparent="false"/>
              <y:BorderStyle color="#000000" type="line" width="1.0"/>
              <y:NodeLabel alignment="center" autoSizePolicy="content" fontFamily="Dialog" fontSize="40" fontStyle="plain" hasBackgroundColor="false" hasLineColor="false" height="51.109375" modelName="custom" textColor="#000000" visible="true" width="29.29296875" x="12.62307795921754" y="1.7148748342174258">2<y:LabelModel>
                  <y:SmartNodeLabelModel distance="4.0"/>
                </y:LabelModel>
                <y:ModelParameter>
                  <y:SmartNodeLabelModelParameter labelRatioX="0.0" labelRatioY="0.0" nodeRatioX="0.0" nodeRatioY="0.0" offsetX="0.0" offsetY="0.0" upX="0.0" upY="-1.0"/>
                </y:ModelParameter>
              </y:NodeLabel>
              <y:Shape type="ellipse"/>
            </y:ShapeNode>
          </data>
        </node>
        <node id="n0::n16">
          <data key="d6">
            <y:ShapeNode>
              <y:Geometry height="54.53912466843508" width="54.53912466843508" x="1309.7604700757188" y="-1629.5028502495343"/>
              <y:Fill color="#99CC00" transparent="false"/>
              <y:BorderStyle color="#000000" type="line" width="1.0"/>
              <y:NodeLabel alignment="center" autoSizePolicy="content" fontFamily="Dialog" fontSize="40" fontStyle="plain" hasBackgroundColor="false" hasLineColor="false" height="51.109375" modelName="custom" textColor="#000000" visible="true" width="29.29296875" x="12.62307795921754" y="1.7148748342174258">2<y:LabelModel>
                  <y:SmartNodeLabelModel distance="4.0"/>
                </y:LabelModel>
                <y:ModelParameter>
                  <y:SmartNodeLabelModelParameter labelRatioX="0.0" labelRatioY="0.0" nodeRatioX="0.0" nodeRatioY="0.0" offsetX="0.0" offsetY="0.0" upX="0.0" upY="-1.0"/>
                </y:ModelParameter>
              </y:NodeLabel>
              <y:Shape type="ellipse"/>
            </y:ShapeNode>
          </data>
        </node>
        <node id="n0::n17">
          <data key="d6">
            <y:ShapeNode>
              <y:Geometry height="54.53912466843508" width="54.53912466843508" x="335.39094717897194" y="-1792.073100217355"/>
              <y:Fill color="#FF0000" transparent="false"/>
              <y:BorderStyle color="#000000" type="line" width="1.0"/>
              <y:NodeLabel alignment="center" autoSizePolicy="content" fontFamily="Dialog" fontSize="40" fontStyle="plain" hasBackgroundColor="false" hasLineColor="false" height="51.109375" modelName="custom" textColor="#000000" visible="true" width="29.29296875" x="12.62307795921754" y="1.7148748342174258">1<y:LabelModel>
                  <y:SmartNodeLabelModel distance="4.0"/>
                </y:LabelModel>
                <y:ModelParameter>
                  <y:SmartNodeLabelModelParameter labelRatioX="0.0" labelRatioY="0.0" nodeRatioX="0.0" nodeRatioY="0.0" offsetX="0.0" offsetY="0.0" upX="0.0" upY="-1.0"/>
                </y:ModelParameter>
              </y:NodeLabel>
              <y:Shape type="ellipse"/>
            </y:ShapeNode>
          </data>
        </node>
        <node id="n0::n18">
          <data key="d6">
            <y:ShapeNode>
              <y:Geometry height="54.53912466843508" width="54.53912466843508" x="444.8810220773421" y="-1792.0731002173547"/>
              <y:Fill color="#99CC00" transparent="false"/>
              <y:BorderStyle color="#000000" type="line" width="1.0"/>
              <y:NodeLabel alignment="center" autoSizePolicy="content" fontFamily="Dialog" fontSize="40" fontStyle="plain" hasBackgroundColor="false" hasLineColor="false" height="51.109375" modelName="custom" textColor="#000000" visible="true" width="29.29296875" x="12.62307795921754" y="1.7148748342176532">2<y:LabelModel>
                  <y:SmartNodeLabelModel distance="4.0"/>
                </y:LabelModel>
                <y:ModelParameter>
                  <y:SmartNodeLabelModelParameter labelRatioX="0.0" labelRatioY="0.0" nodeRatioX="0.0" nodeRatioY="0.0" offsetX="0.0" offsetY="0.0" upX="0.0" upY="-1.0"/>
                </y:ModelParameter>
              </y:NodeLabel>
              <y:Shape type="ellipse"/>
            </y:ShapeNode>
          </data>
        </node>
      </graph>
    </node>
    <node id="n1">
      <data key="d6">
        <y:ShapeNode>
          <y:Geometry height="41.29343719028742" width="183.21941737448697" x="250.10649106504468" y="-1928.2897801132126"/>
          <y:Fill hasColor="false" transparent="false"/>
          <y:BorderStyle color="#000000" type="line" width="2.0"/>
          <y:NodeLabel alignment="center" autoSizePolicy="content" fontFamily="Dialog" fontSize="30" fontStyle="plain" hasBackgroundColor="false" hasLineColor="false" height="39.33203125" modelName="custom" textColor="#000000" visible="true" width="144.6689453125" x="19.275236030993483" y="0.9807029701437386">controller<y:LabelModel>
              <y:SmartNodeLabelModel distance="4.0"/>
            </y:LabelModel>
            <y:ModelParameter>
              <y:SmartNodeLabelModelParameter labelRatioX="0.0" labelRatioY="0.0" nodeRatioX="0.0" nodeRatioY="0.0" offsetX="0.0" offsetY="0.0" upX="0.0" upY="-1.0"/>
            </y:ModelParameter>
          </y:NodeLabel>
          <y:Shape type="rectangle"/>
        </y:ShapeNode>
      </data>
    </node>
    <node id="n2" yfiles.foldertype="group">
      <data key="d6">
        <y:ProxyAutoBoundsNode>
          <y:Realizers active="0">
            <y:GenericGroupNode configuration="com.yworks.bpmn.Artifact.withShadow">
              <y:Geometry height="178.68839091011773" width="862.4620358081722" x="250.10649106504468" y="-1216.2846176907935"/>
              <y:Fill color="#FFFFFFE6" transparent="false"/>
              <y:BorderStyle color="#000000" type="line" width="2.0"/>
              <y:NodeLabel alignment="center" autoSizePolicy="content" fontFamily="Dialog" fontSize="12" fontStyle="plain" hasBackgroundColor="false" hasLineColor="false" hasText="false" height="4.0" modelName="custom" textColor="#000000" visible="true" width="4.0" x="429.2310179040861" y="170.68839091011773">
                <y:LabelModel>
                  <y:SmartNodeLabelModel distance="4.0"/>
                </y:LabelModel>
                <y:ModelParameter>
                  <y:SmartNodeLabelModelParameter labelRatioX="0.0" labelRatioY="0.5" nodeRatioX="0.0" nodeRatioY="0.5" offsetX="0.0" offsetY="-4.0" upX="0.0" upY="-1.0"/>
                </y:ModelParameter>
              </y:NodeLabel>
              <y:StyleProperties>
                <y:Property class="java.awt.Color" name="com.yworks.bpmn.icon.line.color" value="#000000"/>
                <y:Property class="java.awt.Color" name="com.yworks.bpmn.icon.fill2" value="#d4d4d4cc"/>
                <y:Property class="java.awt.Color" name="com.yworks.bpmn.icon.fill" value="#ffffffe6"/>
                <y:Property class="com.yworks.yfiles.bpmn.view.BPMNTypeEnum" name="com.yworks.bpmn.type" value="ARTIFACT_TYPE_GROUP"/>
              </y:StyleProperties>
              <y:State autoResize="true" closed="false" closedHeight="80.0" closedWidth="100.0"/>
              <y:Insets bottom="15" bottomF="15.0" left="15" leftF="15.0" right="15" rightF="15.0" top="15" topF="15.0"/>
              <y:BorderInsets bottom="13" bottomF="12.878427029215345" left="2" leftF="1.6945703217467667" right="1" rightF="0.7123409499820355" top="12" topF="12.471135132812378"/>
            </y:GenericGroupNode>
            <y:GenericGroupNode configuration="com.yworks.bpmn.Artifact.withShadow">
              <y:Geometry height="55.0" width="85.0" x="28.693206454409392" y="265.7496980302277"/>
              <y:Fill color="#FFFFFFE6" transparent="false"/>
              <y:BorderStyle color="#000000" type="dashed_dotted" width="1.0"/>
              <y:NodeLabel alignment="center" autoSizePolicy="content" fontFamily="Dialog" fontSize="12" fontStyle="plain" hasBackgroundColor="false" hasLineColor="false" hasText="false" height="4.0" modelName="custom" textColor="#000000" visible="true" width="4.0" x="40.5" y="47.0">
                <y:LabelModel>
                  <y:SmartNodeLabelModel distance="4.0"/>
                </y:LabelModel>
                <y:ModelParameter>
                  <y:SmartNodeLabelModelParameter labelRatioX="0.0" labelRatioY="0.5" nodeRatioX="0.0" nodeRatioY="0.5" offsetX="0.0" offsetY="-4.0" upX="0.0" upY="-1.0"/>
                </y:ModelParameter>
              </y:NodeLabel>
              <y:StyleProperties>
                <y:Property class="java.awt.Color" name="com.yworks.bpmn.icon.line.color" value="#000000"/>
                <y:Property class="java.awt.Color" name="com.yworks.bpmn.icon.fill2" value="#d4d4d4cc"/>
                <y:Property class="java.awt.Color" name="com.yworks.bpmn.icon.fill" value="#ffffffe6"/>
                <y:Property class="com.yworks.yfiles.bpmn.view.BPMNTypeEnum" name="com.yworks.bpmn.type" value="ARTIFACT_TYPE_GROUP"/>
              </y:StyleProperties>
              <y:State autoResize="true" closed="false" closedHeight="80.0" closedWidth="100.0"/>
              <y:Insets bottom="15" bottomF="15.0" left="15" leftF="15.0" right="15" rightF="15.0" top="15" topF="15.0"/>
              <y:BorderInsets bottom="0" bottomF="0.0" left="0" leftF="0.0" right="0" rightF="0.0" top="0" topF="0.0"/>
            </y:GenericGroupNode>
          </y:Realizers>
        </y:ProxyAutoBoundsNode>
      </data>
      <graph edgedefault="directed" id="n2:">
        <node id="n2::n0">
          <data key="d6">
            <y:GenericNode configuration="com.yworks.entityRelationship.big_entity">
              <y:Geometry height="119.46236737400534" width="266.71647445434627" x="568.4927493296339" y="-1186.8752518709389"/>
              <y:Fill color="#FFFFFF" transparent="false"/>
              <y:BorderStyle color="#000000" type="line" width="1.0"/>
              <y:NodeLabel alignment="center" autoSizePolicy="content" configuration="com.yworks.entityRelationship.label.name" fontFamily="Dialog" fontSize="30" fontStyle="plain" hasBackgroundColor="false" hasLineColor="false" height="39.33203125" modelName="internal" modelPosition="t" textColor="#000000" visible="true" width="238.66796875" x="14.024252852173163" y="4.0">NewLabelScreen</y:NodeLabel>
              <y:NodeLabel alignment="left" autoSizePolicy="content" configuration="com.yworks.entityRelationship.label.attributes" fontFamily="Dialog" fontSize="12" fontStyle="plain" hasBackgroundColor="false" hasLineColor="false" hasText="false" height="4.0" modelName="custom" textColor="#000000" visible="true" width="4.0" x="2.0" y="51.33203125">
                <y:LabelModel>
                  <y:ErdAttributesNodeLabelModel/>
                </y:LabelModel>
                <y:ModelParameter>
                  <y:ErdAttributesNodeLabelModelParameter/>
                </y:ModelParameter>
              </y:NodeLabel>
              <y:StyleProperties>
                <y:Property class="java.lang.Boolean" name="y.view.ShadowNodePainter.SHADOW_PAINTING" value="true"/>
              </y:StyleProperties>
            </y:GenericNode>
          </data>
        </node>
        <node id="n2::n1">
          <data key="d6">
            <y:GenericNode configuration="com.yworks.entityRelationship.big_entity">
              <y:Geometry height="123.33882874809012" width="245.7899295608458" x="851.0662563623889" y="-1188.8134825579812"/>
              <y:Fill color="#FFFFFF" transparent="false"/>
              <y:BorderStyle color="#000000" type="line" width="1.0"/>
              <y:NodeLabel alignment="center" autoSizePolicy="content" configuration="com.yworks.entityRelationship.label.name" fontFamily="Dialog" fontSize="30" fontStyle="plain" hasBackgroundColor="false" hasLineColor="false" height="39.33203125" modelName="internal" modelPosition="t" textColor="#000000" visible="true" width="237.701171875" x="4.044378842922924" y="4.0">MediaListScreen</y:NodeLabel>
              <y:NodeLabel alignment="left" autoSizePolicy="content" configuration="com.yworks.entityRelationship.label.attributes" fontFamily="Dialog" fontSize="12" fontStyle="plain" hasBackgroundColor="false" hasLineColor="false" hasText="false" height="4.0" modelName="custom" textColor="#000000" visible="true" width="4.0" x="2.0" y="51.33203125">
                <y:LabelModel>
                  <y:ErdAttributesNodeLabelModel/>
                </y:LabelModel>
                <y:ModelParameter>
                  <y:ErdAttributesNodeLabelModelParameter/>
                </y:ModelParameter>
              </y:NodeLabel>
              <y:StyleProperties>
                <y:Property class="java.lang.Boolean" name="y.view.ShadowNodePainter.SHADOW_PAINTING" value="true"/>
              </y:StyleProperties>
            </y:GenericNode>
          </data>
        </node>
        <node id="n2::n2">
          <data key="d6">
            <y:GenericNode configuration="com.yworks.entityRelationship.big_entity">
              <y:Geometry height="118.2810990137151" width="285.8346553644336" x="266.80106138679145" y="-1186.2846176907935"/>
              <y:Fill color="#FFFFFF" transparent="false"/>
              <y:BorderStyle color="#000000" type="line" width="1.0"/>
              <y:NodeLabel alignment="center" autoSizePolicy="content" configuration="com.yworks.entityRelationship.label.name" fontFamily="Dialog" fontSize="30" fontStyle="plain" hasBackgroundColor="false" hasLineColor="false" height="39.33203125" modelName="internal" modelPosition="t" textColor="#000000" visible="true" width="281.412109375" x="2.2112729947168077" y="4.0">AddMediaToAlbum</y:NodeLabel>
              <y:NodeLabel alignment="left" autoSizePolicy="content" configuration="com.yworks.entityRelationship.label.attributes" fontFamily="Dialog" fontSize="12" fontStyle="plain" hasBackgroundColor="false" hasLineColor="false" hasText="false" height="4.0" modelName="custom" textColor="#000000" visible="true" width="4.0" x="2.0" y="51.33203125">
                <y:LabelModel>
                  <y:ErdAttributesNodeLabelModel/>
                </y:LabelModel>
                <y:ModelParameter>
                  <y:ErdAttributesNodeLabelModelParameter/>
                </y:ModelParameter>
              </y:NodeLabel>
              <y:StyleProperties>
                <y:Property class="java.lang.Boolean" name="y.view.ShadowNodePainter.SHADOW_PAINTING" value="true"/>
              </y:StyleProperties>
            </y:GenericNode>
          </data>
        </node>
        <node id="n2::n3">
          <data key="d6">
            <y:ShapeNode>
              <y:Geometry height="54.53912466843508" width="54.53912466843508" x="319.30437669312556" y="-1135.838920974822"/>
              <y:Fill color="#FF0000" transparent="false"/>
              <y:BorderStyle color="#000000" type="line" width="1.0"/>
              <y:NodeLabel alignment="center" autoSizePolicy="content" fontFamily="Dialog" fontSize="40" fontStyle="plain" hasBackgroundColor="false" hasLineColor="false" height="51.109375" modelName="custom" textColor="#000000" visible="true" width="29.29296875" x="12.62307795921754" y="1.7148748342176532">1<y:LabelModel>
                  <y:SmartNodeLabelModel distance="4.0"/>
                </y:LabelModel>
                <y:ModelParameter>
                  <y:SmartNodeLabelModelParameter labelRatioX="0.0" labelRatioY="0.0" nodeRatioX="0.0" nodeRatioY="0.0" offsetX="0.0" offsetY="0.0" upX="0.0" upY="-1.0"/>
                </y:ModelParameter>
              </y:NodeLabel>
              <y:Shape type="ellipse"/>
            </y:ShapeNode>
          </data>
        </node>
        <node id="n2::n4">
          <data key="d6">
            <y:ShapeNode>
              <y:Geometry height="54.53912466843508" width="54.53912466843508" x="428.7944515914957" y="-1135.8389209748218"/>
              <y:Fill color="#99CC00" transparent="false"/>
              <y:BorderStyle color="#000000" type="line" width="1.0"/>
              <y:NodeLabel alignment="center" autoSizePolicy="content" fontFamily="Dialog" fontSize="40" fontStyle="plain" hasBackgroundColor="false" hasLineColor="false" height="51.109375" modelName="custom" textColor="#000000" visible="true" width="29.29296875" x="12.62307795921754" y="1.7148748342176532">1<y:LabelModel>
                  <y:SmartNodeLabelModel distance="4.0"/>
                </y:LabelModel>
                <y:ModelParameter>
                  <y:SmartNodeLabelModelParameter labelRatioX="0.0" labelRatioY="0.0" nodeRatioX="0.0" nodeRatioY="0.0" offsetX="0.0" offsetY="0.0" upX="0.0" upY="-1.0"/>
                </y:ModelParameter>
              </y:NodeLabel>
              <y:Shape type="ellipse"/>
            </y:ShapeNode>
          </data>
        </node>
        <node id="n2::n5">
          <data key="d6">
            <y:ShapeNode>
              <y:Geometry height="54.53912466843508" width="54.53912466843508" x="878.9399796820786" y="-1132.051091001477"/>
              <y:Fill color="#FF0000" transparent="false"/>
              <y:BorderStyle color="#000000" type="line" width="1.0"/>
              <y:NodeLabel alignment="center" autoSizePolicy="content" fontFamily="Dialog" fontSize="40" fontStyle="plain" hasBackgroundColor="false" hasLineColor="false" height="51.109375" modelName="custom" textColor="#000000" visible="true" width="29.29296875" x="12.62307795921754" y="1.7148748342174258">1<y:LabelModel>
                  <y:SmartNodeLabelModel distance="4.0"/>
                </y:LabelModel>
                <y:ModelParameter>
                  <y:SmartNodeLabelModelParameter labelRatioX="0.0" labelRatioY="0.0" nodeRatioX="0.0" nodeRatioY="0.0" offsetX="0.0" offsetY="0.0" upX="0.0" upY="-1.0"/>
                </y:ModelParameter>
              </y:NodeLabel>
              <y:Shape type="ellipse"/>
            </y:ShapeNode>
          </data>
        </node>
        <node id="n2::n6">
          <data key="d6">
            <y:ShapeNode>
              <y:Geometry height="54.53912466843508" width="54.53912466843508" x="988.4300545804488" y="-1132.0510910014768"/>
              <y:Fill color="#99CC00" transparent="false"/>
              <y:BorderStyle color="#000000" type="line" width="1.0"/>
              <y:NodeLabel alignment="center" autoSizePolicy="content" fontFamily="Dialog" fontSize="40" fontStyle="plain" hasBackgroundColor="false" hasLineColor="false" height="51.109375" modelName="custom" textColor="#000000" visible="true" width="29.29296875" x="12.62307795921754" y="1.7148748342176532">1<y:LabelModel>
                  <y:SmartNodeLabelModel distance="4.0"/>
                </y:LabelModel>
                <y:ModelParameter>
                  <y:SmartNodeLabelModelParameter labelRatioX="0.0" labelRatioY="0.0" nodeRatioX="0.0" nodeRatioY="0.0" offsetX="0.0" offsetY="0.0" upX="0.0" upY="-1.0"/>
                </y:ModelParameter>
              </y:NodeLabel>
              <y:Shape type="ellipse"/>
            </y:ShapeNode>
          </data>
        </node>
        <node id="n2::n7">
          <data key="d6">
            <y:ShapeNode>
              <y:Geometry height="54.53912466843508" width="54.53912466843508" x="742.6091604207165" y="-1130.9349171596116"/>
              <y:Fill color="#FF0000" transparent="false"/>
              <y:BorderStyle color="#000000" type="line" width="1.0"/>
              <y:NodeLabel alignment="center" autoSizePolicy="content" fontFamily="Dialog" fontSize="40" fontStyle="plain" hasBackgroundColor="false" hasLineColor="false" height="51.109375" modelName="custom" textColor="#000000" visible="true" width="29.29296875" x="12.62307795921754" y="1.7148748342174258">1<y:LabelModel>
                  <y:SmartNodeLabelModel distance="4.0"/>
                </y:LabelModel>
                <y:ModelParameter>
                  <y:SmartNodeLabelModelParameter labelRatioX="0.0" labelRatioY="0.0" nodeRatioX="0.0" nodeRatioY="0.0" offsetX="0.0" offsetY="0.0" upX="0.0" upY="-1.0"/>
                </y:ModelParameter>
              </y:NodeLabel>
              <y:Shape type="ellipse"/>
            </y:ShapeNode>
          </data>
        </node>
        <node id="n2::n8">
          <data key="d6">
            <y:ShapeNode>
              <y:Geometry height="54.53912466843508" width="54.53912466843508" x="620.3528762517533" y="-1130.9349171596114"/>
              <y:Fill color="#99CC00" transparent="false"/>
              <y:BorderStyle color="#000000" type="line" width="1.0"/>
              <y:NodeLabel alignment="center" autoSizePolicy="content" fontFamily="Dialog" fontSize="40" fontStyle="plain" hasBackgroundColor="false" hasLineColor="false" height="51.109375" modelName="custom" textColor="#000000" visible="true" width="29.29296875" x="12.62307795921754" y="1.7148748342176532">1<y:LabelModel>
                  <y:SmartNodeLabelModel distance="4.0"/>
                </y:LabelModel>
                <y:ModelParameter>
                  <y:SmartNodeLabelModelParameter labelRatioX="0.0" labelRatioY="0.0" nodeRatioX="0.0" nodeRatioY="0.0" offsetX="0.0" offsetY="0.0" upX="0.0" upY="-1.0"/>
                </y:ModelParameter>
              </y:NodeLabel>
              <y:Shape type="ellipse"/>
            </y:ShapeNode>
          </data>
        </node>
      </graph>
    </node>
    <node id="n3">
      <data key="d6">
        <y:ShapeNode>
          <y:Geometry height="41.29343719028742" width="165.88567523957636" x="250.10649106504468" y="-1257.578054881081"/>
          <y:Fill hasColor="false" transparent="false"/>
          <y:BorderStyle color="#000000" type="line" width="2.0"/>
          <y:NodeLabel alignment="center" autoSizePolicy="content" fontFamily="Dialog" fontSize="30" fontStyle="plain" hasBackgroundColor="false" hasLineColor="false" height="39.33203125" modelName="custom" textColor="#000000" visible="true" width="114.2734375" x="25.80611886978818" y="0.9807029701437386">screens<y:LabelModel>
              <y:SmartNodeLabelModel distance="4.0"/>
            </y:LabelModel>
            <y:ModelParameter>
              <y:SmartNodeLabelModelParameter labelRatioX="0.0" labelRatioY="0.0" nodeRatioX="0.0" nodeRatioY="0.0" offsetX="0.0" offsetY="0.0" upX="0.0" upY="-1.0"/>
            </y:ModelParameter>
          </y:NodeLabel>
          <y:Shape type="rectangle"/>
        </y:ShapeNode>
      </data>
    </node>
    <node id="n4" yfiles.foldertype="group">
      <data key="d6">
        <y:ProxyAutoBoundsNode>
          <y:Realizers active="0">
            <y:GenericGroupNode configuration="com.yworks.bpmn.Artifact.withShadow">
              <y:Geometry height="246.06156030944362" width="1055.587820623371" x="413.4265754701215" y="-993.1415833894871"/>
              <y:Fill color="#FFFFFFE6" transparent="false"/>
              <y:BorderStyle color="#000000" type="line" width="2.0"/>
              <y:NodeLabel alignment="left" autoSizePolicy="content" fontFamily="Dialog" fontSize="40" fontStyle="plain" hasBackgroundColor="false" hasLineColor="false" hasText="false" height="4.0" modelName="internal" modelPosition="l" textColor="#000000" visible="true" width="4.0" x="4.0" y="121.03078015472181"/>
              <y:StyleProperties>
                <y:Property class="java.awt.Color" name="com.yworks.bpmn.icon.line.color" value="#000000"/>
                <y:Property class="java.awt.Color" name="com.yworks.bpmn.icon.fill2" value="#d4d4d4cc"/>
                <y:Property class="java.awt.Color" name="com.yworks.bpmn.icon.fill" value="#ffffffe6"/>
                <y:Property class="com.yworks.yfiles.bpmn.view.BPMNTypeEnum" name="com.yworks.bpmn.type" value="ARTIFACT_TYPE_GROUP"/>
              </y:StyleProperties>
              <y:State autoResize="true" closed="false" closedHeight="80.0" closedWidth="100.0"/>
              <y:Insets bottom="15" bottomF="15.0" left="15" leftF="15.0" right="15" rightF="15.0" top="15" topF="15.0"/>
              <y:BorderInsets bottom="0" bottomF="0.0" left="6" leftF="6.376689650294736" right="66" rightF="65.69931883504432" top="0" topF="0.0"/>
            </y:GenericGroupNode>
            <y:GenericGroupNode configuration="com.yworks.bpmn.Artifact.withShadow">
              <y:Geometry height="55.0" width="85.0" x="5.639582300958409" y="792.3554687499998"/>
              <y:Fill color="#FFFFFFE6" transparent="false"/>
              <y:BorderStyle color="#000000" type="dashed_dotted" width="1.0"/>
              <y:NodeLabel alignment="center" autoSizePolicy="content" fontFamily="Dialog" fontSize="12" fontStyle="plain" hasBackgroundColor="false" hasLineColor="false" hasText="false" height="4.0" modelName="custom" textColor="#000000" visible="true" width="4.0" x="40.5" y="47.0">
                <y:LabelModel>
                  <y:SmartNodeLabelModel distance="4.0"/>
                </y:LabelModel>
                <y:ModelParameter>
                  <y:SmartNodeLabelModelParameter labelRatioX="0.0" labelRatioY="0.5" nodeRatioX="0.0" nodeRatioY="0.5" offsetX="0.0" offsetY="-4.0" upX="0.0" upY="-1.0"/>
                </y:ModelParameter>
              </y:NodeLabel>
              <y:StyleProperties>
                <y:Property class="java.awt.Color" name="com.yworks.bpmn.icon.line.color" value="#000000"/>
                <y:Property class="java.awt.Color" name="com.yworks.bpmn.icon.fill2" value="#d4d4d4cc"/>
                <y:Property class="java.awt.Color" name="com.yworks.bpmn.icon.fill" value="#ffffffe6"/>
                <y:Property class="com.yworks.yfiles.bpmn.view.BPMNTypeEnum" name="com.yworks.bpmn.type" value="ARTIFACT_TYPE_GROUP"/>
              </y:StyleProperties>
              <y:State autoResize="true" closed="false" closedHeight="80.0" closedWidth="100.0"/>
              <y:Insets bottom="15" bottomF="15.0" left="15" leftF="15.0" right="15" rightF="15.0" top="15" topF="15.0"/>
              <y:BorderInsets bottom="0" bottomF="0.0" left="0" leftF="0.0" right="0" rightF="0.0" top="0" topF="0.0"/>
            </y:GenericGroupNode>
          </y:Realizers>
        </y:ProxyAutoBoundsNode>
      </data>
      <graph edgedefault="directed" id="n4:">
        <node id="n4::n0">
          <data key="d6">
            <y:ShapeNode>
              <y:Geometry height="30.0" width="30.0" x="1191.102877496825" y="-796.7460387050435"/>
              <y:Fill hasColor="false" transparent="false"/>
              <y:BorderStyle hasColor="false" type="line" width="1.0"/>
              <y:NodeLabel alignment="center" autoSizePolicy="content" fontFamily="Dialog" fontSize="12" fontStyle="plain" hasBackgroundColor="false" hasLineColor="false" hasText="false" height="4.0" modelName="custom" textColor="#000000" visible="true" width="4.0" x="13.0" y="13.0">
                <y:LabelModel>
                  <y:SmartNodeLabelModel distance="4.0"/>
                </y:LabelModel>
                <y:ModelParameter>
                  <y:SmartNodeLabelModelParameter labelRatioX="0.0" labelRatioY="0.0" nodeRatioX="0.0" nodeRatioY="0.0" offsetX="0.0" offsetY="0.0" upX="0.0" upY="-1.0"/>
                </y:ModelParameter>
              </y:NodeLabel>
              <y:Shape type="rectangle"/>
            </y:ShapeNode>
          </data>
        </node>
        <node id="n4::n1">
          <data key="d6">
            <y:ShapeNode>
              <y:Geometry height="30.0" width="30.0" x="1059.9317904976556" y="-796.7460387050435"/>
              <y:Fill hasColor="false" transparent="false"/>
              <y:BorderStyle hasColor="false" type="line" width="1.0"/>
              <y:NodeLabel alignment="center" autoSizePolicy="content" fontFamily="Dialog" fontSize="12" fontStyle="plain" hasBackgroundColor="false" hasLineColor="false" hasText="false" height="4.0" modelName="custom" textColor="#000000" visible="true" width="4.0" x="13.0" y="13.0">
                <y:LabelModel>
                  <y:SmartNodeLabelModel distance="4.0"/>
                </y:LabelModel>
                <y:ModelParameter>
                  <y:SmartNodeLabelModelParameter labelRatioX="0.0" labelRatioY="0.0" nodeRatioX="0.0" nodeRatioY="0.0" offsetX="0.0" offsetY="0.0" upX="0.0" upY="-1.0"/>
                </y:ModelParameter>
              </y:NodeLabel>
              <y:Shape type="rectangle"/>
            </y:ShapeNode>
          </data>
        </node>
        <node id="n4::n2">
          <data key="d6">
            <y:ShapeNode>
              <y:Geometry height="30.0" width="30.0" x="550.9152850440495" y="-795.6406778602231"/>
              <y:Fill hasColor="false" transparent="false"/>
              <y:BorderStyle hasColor="false" type="line" width="1.0"/>
              <y:NodeLabel alignment="center" autoSizePolicy="content" fontFamily="Dialog" fontSize="12" fontStyle="plain" hasBackgroundColor="false" hasLineColor="false" hasText="false" height="4.0" modelName="custom" textColor="#000000" visible="true" width="4.0" x="13.0" y="13.0">
                <y:LabelModel>
                  <y:SmartNodeLabelModel distance="4.0"/>
                </y:LabelModel>
                <y:ModelParameter>
                  <y:SmartNodeLabelModelParameter labelRatioX="0.0" labelRatioY="0.0" nodeRatioX="0.0" nodeRatioY="0.0" offsetX="0.0" offsetY="0.0" upX="0.0" upY="-1.0"/>
                </y:ModelParameter>
              </y:NodeLabel>
              <y:Shape type="rectangle"/>
            </y:ShapeNode>
          </data>
        </node>
        <node id="n4::n3">
          <data key="d6">
            <y:ShapeNode>
              <y:Geometry height="30.0" width="9.653523193196747" x="440.0906748516834" y="-795.6406778602231"/>
              <y:Fill hasColor="false" transparent="false"/>
              <y:BorderStyle hasColor="false" type="line" width="1.0"/>
              <y:NodeLabel alignment="center" autoSizePolicy="content" fontFamily="Dialog" fontSize="12" fontStyle="plain" hasBackgroundColor="false" hasLineColor="false" hasText="false" height="4.0" modelName="custom" textColor="#000000" visible="true" width="4.0" x="2.8267615965983737" y="13.0">
                <y:LabelModel>
                  <y:SmartNodeLabelModel distance="4.0"/>
                </y:LabelModel>
                <y:ModelParameter>
                  <y:SmartNodeLabelModelParameter labelRatioX="0.0" labelRatioY="0.0" nodeRatioX="0.0" nodeRatioY="0.0" offsetX="0.0" offsetY="0.0" upX="0.0" upY="-1.0"/>
                </y:ModelParameter>
              </y:NodeLabel>
              <y:Shape type="rectangle"/>
            </y:ShapeNode>
          </data>
        </node>
        <node id="n4::n4">
          <data key="d6">
            <y:ShapeNode>
              <y:Geometry height="54.53912466843508" width="54.53912466843508" x="438.80326512041626" y="-964.7189271970933"/>
              <y:Fill color="#99CC00" transparent="false"/>
              <y:BorderStyle color="#000000" type="line" width="1.0"/>
              <y:NodeLabel alignment="center" autoSizePolicy="content" fontFamily="Dialog" fontSize="40" fontStyle="plain" hasBackgroundColor="false" hasLineColor="false" height="51.109375" modelName="custom" textColor="#000000" visible="true" width="29.29296875" x="12.62307795921754" y="1.7148748342175395">#<y:LabelModel>
                  <y:SmartNodeLabelModel distance="4.0"/>
                </y:LabelModel>
                <y:ModelParameter>
                  <y:SmartNodeLabelModelParameter labelRatioX="0.0" labelRatioY="0.0" nodeRatioX="0.0" nodeRatioY="0.0" offsetX="0.0" offsetY="0.0" upX="0.0" upY="-1.0"/>
                </y:ModelParameter>
              </y:NodeLabel>
              <y:Shape type="ellipse"/>
            </y:ShapeNode>
          </data>
        </node>
        <node id="n4::n5">
          <data key="d6">
            <y:ShapeNode>
              <y:Geometry height="54.53912466843508" width="54.53912466843508" x="438.80326512041626" y="-880.1798025286582"/>
              <y:Fill color="#FF0000" transparent="false"/>
              <y:BorderStyle color="#000000" type="line" width="1.0"/>
              <y:NodeLabel alignment="center" autoSizePolicy="content" fontFamily="Dialog" fontSize="40" fontStyle="plain" hasBackgroundColor="false" hasLineColor="false" height="51.109375" modelName="custom" textColor="#000000" visible="true" width="29.29296875" x="12.62307795921754" y="1.7148748342175395">#<y:LabelModel>
                  <y:SmartNodeLabelModel distance="4.0"/>
                </y:LabelModel>
                <y:ModelParameter>
                  <y:SmartNodeLabelModelParameter labelRatioX="0.0" labelRatioY="0.0" nodeRatioX="0.0" nodeRatioY="0.0" offsetX="0.0" offsetY="0.0" upX="0.0" upY="-1.0"/>
                </y:ModelParameter>
              </y:NodeLabel>
              <y:Shape type="ellipse"/>
            </y:ShapeNode>
          </data>
        </node>
        <node id="n4::n6">
          <data key="d5"/>
          <data key="d6">
            <y:ShapeNode>
              <y:Geometry height="19.080827437106905" width="286.7880859375" x="595.6050251952371" y="-860.3990241186261"/>
              <y:Fill hasColor="false" transparent="false"/>
              <y:BorderStyle hasColor="false" type="line" width="1.0"/>
              <y:NodeLabel alignment="left" autoSizePolicy="content" fontFamily="Dialog" fontSize="30" fontStyle="plain" hasBackgroundColor="false" hasLineColor="false" height="74.6640625" modelName="internal" modelPosition="c" textColor="#000000" visible="true" width="476.55859375" x="-94.88525390625" y="-27.791617531446548">number of irrelevante anomalies
in a class or method</y:NodeLabel>
              <y:Shape type="rectangle"/>
            </y:ShapeNode>
          </data>
        </node>
        <node id="n4::n7">
          <data key="d5"/>
          <data key="d6">
            <y:ShapeNode>
              <y:Geometry height="19.080827437106905" width="286.7880859375" x="508.967330428516" y="-791.286452423597"/>
              <y:Fill hasColor="false" transparent="false"/>
              <y:BorderStyle hasColor="false" type="line" width="1.0"/>
              <y:NodeLabel alignment="left" autoSizePolicy="content" fontFamily="Dialog" fontSize="30" fontStyle="plain" hasBackgroundColor="false" hasLineColor="false" height="39.33203125" modelName="internal" modelPosition="c" textColor="#000000" visible="true" width="179.0634765625" x="53.8623046875" y="-10.125601906446548">dependency</y:NodeLabel>
              <y:Shape type="rectangle"/>
            </y:ShapeNode>
          </data>
        </node>
        <node id="n4::n8">
          <data key="d6">
            <y:ShapeNode>
              <y:Geometry height="19.861492410888644" width="54.53912466843508" x="1094.1939294747776" y="-978.0098606791489"/>
              <y:Fill hasColor="false" transparent="false"/>
              <y:BorderStyle color="#000000" type="line" width="2.0"/>
              <y:NodeLabel alignment="center" autoSizePolicy="content" fontFamily="Dialog" fontSize="30" fontStyle="plain" hasBackgroundColor="false" hasLineColor="false" hasText="false" height="4.0" modelName="custom" textColor="#000000" visible="true" width="4.0" x="25.26956233421754" y="7.930746205444336">
                <y:LabelModel>
                  <y:SmartNodeLabelModel distance="4.0"/>
                </y:LabelModel>
                <y:ModelParameter>
                  <y:SmartNodeLabelModelParameter labelRatioX="0.0" labelRatioY="0.0" nodeRatioX="0.0" nodeRatioY="0.0" offsetX="0.0" offsetY="0.0" upX="0.0" upY="-1.0"/>
                </y:ModelParameter>
              </y:NodeLabel>
              <y:Shape type="rectangle"/>
            </y:ShapeNode>
          </data>
        </node>
        <node id="n4::n9">
          <data key="d6">
            <y:ShapeNode>
              <y:Geometry height="34.677632257546435" width="107.94039231009936" x="1094.1939294747776" y="-958.1483682682604"/>
              <y:Fill hasColor="false" transparent="false"/>
              <y:BorderStyle color="#000000" type="line" width="2.0"/>
              <y:NodeLabel alignment="center" autoSizePolicy="content" fontFamily="Dialog" fontSize="30" fontStyle="plain" hasBackgroundColor="false" hasLineColor="false" hasText="false" height="4.0" modelName="custom" textColor="#000000" visible="true" width="4.0" x="51.970196155049734" y="15.338816128773217">
                <y:LabelModel>
                  <y:SmartNodeLabelModel distance="4.0"/>
                </y:LabelModel>
                <y:ModelParameter>
                  <y:SmartNodeLabelModelParameter labelRatioX="0.0" labelRatioY="0.0" nodeRatioX="0.0" nodeRatioY="0.0" offsetX="0.0" offsetY="0.0" upX="0.0" upY="-1.0"/>
                </y:ModelParameter>
              </y:NodeLabel>
              <y:Shape type="rectangle"/>
            </y:ShapeNode>
          </data>
        </node>
        <node id="n4::n10">
          <data key="d6">
            <y:ShapeNode>
              <y:Geometry height="30.0" width="30.0" x="1257.112617349565" y="-955.8095521394871"/>
              <y:Fill hasColor="false" transparent="false"/>
              <y:BorderStyle hasColor="false" type="line" width="1.0"/>
              <y:NodeLabel alignment="left" autoSizePolicy="content" fontFamily="Dialog" fontSize="30" fontStyle="plain" hasBackgroundColor="false" hasLineColor="false" height="74.6640625" modelName="custom" textColor="#000000" visible="true" width="173.6728515625" x="-42.47039165361684" y="-22.33203125">Design
Component<y:LabelModel>
                  <y:SmartNodeLabelModel distance="4.0"/>
                </y:LabelModel>
                <y:ModelParameter>
                  <y:SmartNodeLabelModelParameter labelRatioX="0.0" labelRatioY="0.0" nodeRatioX="0.9788678042544385" nodeRatioY="0.0" offsetX="0.0" offsetY="0.0" upX="0.0" upY="-1.0"/>
                </y:ModelParameter>
              </y:NodeLabel>
              <y:Shape type="rectangle"/>
            </y:ShapeNode>
          </data>
        </node>
        <node id="n4::n11">
          <data key="d6">
            <y:ShapeNode>
              <y:Geometry height="19.861492410888644" width="107.94039231009958" x="1094.1939294747776" y="-888.0162026812196"/>
              <y:Fill hasColor="false" transparent="false"/>
              <y:BorderStyle color="#000000" type="line" width="2.0"/>
              <y:NodeLabel alignment="center" autoSizePolicy="content" fontFamily="Dialog" fontSize="30" fontStyle="plain" hasBackgroundColor="false" hasLineColor="false" hasText="false" height="4.0" modelName="custom" textColor="#000000" visible="true" width="4.0" x="51.970196155049734" y="7.930746205444322">
                <y:LabelModel>
                  <y:SmartNodeLabelModel distance="4.0"/>
                </y:LabelModel>
                <y:ModelParameter>
                  <y:SmartNodeLabelModelParameter labelRatioX="0.0" labelRatioY="0.0" nodeRatioX="0.0" nodeRatioY="0.0" offsetX="0.0" offsetY="0.0" upX="0.0" upY="-1.0"/>
                </y:ModelParameter>
              </y:NodeLabel>
              <y:Shape type="rectangle"/>
            </y:ShapeNode>
          </data>
        </node>
        <node id="n4::n12">
          <data key="d6">
            <y:ShapeNode>
              <y:Geometry height="30.0" width="107.94039231009958" x="1094.1939294747776" y="-868.154710270331"/>
              <y:Fill hasColor="false" transparent="false"/>
              <y:BorderStyle color="#000000" type="line" width="2.0"/>
              <y:NodeLabel alignment="center" autoSizePolicy="content" fontFamily="Dialog" fontSize="30" fontStyle="plain" hasBackgroundColor="false" hasLineColor="false" hasText="false" height="4.0" modelName="custom" textColor="#000000" visible="true" width="4.0" x="51.970196155049734" y="13.0">
                <y:LabelModel>
                  <y:SmartNodeLabelModel distance="4.0"/>
                </y:LabelModel>
                <y:ModelParameter>
                  <y:SmartNodeLabelModelParameter labelRatioX="0.0" labelRatioY="0.0" nodeRatioX="0.0" nodeRatioY="0.0" offsetX="0.0" offsetY="0.0" upX="0.0" upY="-1.0"/>
                </y:ModelParameter>
              </y:NodeLabel>
              <y:Shape type="rectangle"/>
            </y:ShapeNode>
          </data>
        </node>
        <node id="n4::n13">
          <data key="d6">
            <y:ShapeNode>
              <y:Geometry height="30.0" width="30.0" x="1232.134321784877" y="-878.808701424181"/>
              <y:Fill hasColor="false" transparent="false"/>
              <y:BorderStyle hasColor="false" type="line" width="1.0"/>
              <y:NodeLabel alignment="left" autoSizePolicy="content" fontFamily="Dialog" fontSize="30" fontStyle="plain" hasBackgroundColor="false" hasLineColor="false" height="39.33203125" modelName="custom" textColor="#000000" visible="true" width="80.58203125" x="17.795990807527005" y="-4.666015625">Class<y:LabelModel>
                  <y:SmartNodeLabelModel distance="4.0"/>
                </y:LabelModel>
                <y:ModelParameter>
                  <y:SmartNodeLabelModelParameter labelRatioX="-0.348551730414799" labelRatioY="0.0" nodeRatioX="0.5" nodeRatioY="0.0" offsetX="0.0" offsetY="0.0" upX="0.0" upY="-1.0"/>
                </y:ModelParameter>
              </y:NodeLabel>
              <y:Shape type="rectangle"/>
            </y:ShapeNode>
          </data>
        </node>
      </graph>
    </node>
    <node id="n5">
      <data key="d6">
        <y:ShapeNode>
          <y:Geometry height="51.109375" width="144.83984375" x="393.6529055796338" y="-1038.0035186770783"/>
          <y:Fill hasColor="false" transparent="false"/>
          <y:BorderStyle hasColor="false" type="line" width="1.0"/>
          <y:NodeLabel alignment="center" autoSizePolicy="content" fontFamily="Dialog" fontSize="30" fontStyle="plain" hasBackgroundColor="false" hasLineColor="false" height="39.33203125" modelName="internal" modelPosition="c" textColor="#000000" visible="true" width="109.6298828125" x="17.60498046875" y="5.888671875">Legend</y:NodeLabel>
          <y:Shape type="rectangle"/>
        </y:ShapeNode>
      </data>
    </node>
    <node id="n6">
      <data key="d5"/>
      <data key="d6">
        <y:ShapeNode>
          <y:Geometry height="19.080827437106905" width="286.7880859375" x="586.2693333713377" y="-946.9897785814292"/>
          <y:Fill hasColor="false" transparent="false"/>
          <y:BorderStyle hasColor="false" type="line" width="1.0"/>
          <y:NodeLabel alignment="left" autoSizePolicy="content" fontFamily="Dialog" fontSize="30" fontStyle="plain" hasBackgroundColor="false" hasLineColor="false" height="74.6640625" modelName="internal" modelPosition="c" textColor="#000000" visible="true" width="455.611328125" x="-84.41162109375" y="-27.791617531446548">number of relevante anomalies
in a class or method</y:NodeLabel>
          <y:Shape type="rectangle"/>
        </y:ShapeNode>
      </data>
    </node>
    <node id="n7">
      <data key="d5"/>
      <data key="d6">
        <y:ShapeNode>
          <y:Geometry height="62.88671875" width="274.0439453125" x="1149.1549228812914" y="-813.1893980800435"/>
          <y:Fill hasColor="false" transparent="false"/>
          <y:BorderStyle hasColor="false" type="line" width="1.0"/>
          <y:NodeLabel alignment="left" autoSizePolicy="content" fontFamily="Dialog" fontSize="30" fontStyle="plain" hasBackgroundColor="false" hasLineColor="false" height="39.33203125" modelName="internal" modelPosition="c" textColor="#000000" visible="true" width="166.0263671875" x="54.0087890625" y="11.77734375">Inheritance</y:NodeLabel>
          <y:Shape type="rectangle"/>
        </y:ShapeNode>
      </data>
    </node>
    <node id="n8" yfiles.foldertype="group">
      <data key="d6">
        <y:ProxyAutoBoundsNode>
          <y:Realizers active="0">
            <y:GenericGroupNode configuration="com.yworks.bpmn.Artifact.withShadow">
              <y:Geometry height="179.0956828065207" width="523.6440182363556" x="1127.5685268732168" y="-1216.6919095871965"/>
              <y:Fill color="#FFFFFFE6" transparent="false"/>
              <y:BorderStyle color="#000000" type="line" width="2.0"/>
              <y:NodeLabel alignment="center" autoSizePolicy="content" fontFamily="Dialog" fontSize="12" fontStyle="plain" hasBackgroundColor="false" hasLineColor="false" hasText="false" height="4.0" modelName="custom" textColor="#000000" visible="true" width="4.0" x="259.8220091181779" y="171.0956828065207">
                <y:LabelModel>
                  <y:SmartNodeLabelModel distance="4.0"/>
                </y:LabelModel>
                <y:ModelParameter>
                  <y:SmartNodeLabelModelParameter labelRatioX="0.0" labelRatioY="0.5" nodeRatioX="0.0" nodeRatioY="0.5" offsetX="0.0" offsetY="-4.0" upX="0.0" upY="-1.0"/>
                </y:ModelParameter>
              </y:NodeLabel>
              <y:StyleProperties>
                <y:Property class="java.awt.Color" name="com.yworks.bpmn.icon.line.color" value="#000000"/>
                <y:Property class="java.awt.Color" name="com.yworks.bpmn.icon.fill2" value="#d4d4d4cc"/>
                <y:Property class="java.awt.Color" name="com.yworks.bpmn.icon.fill" value="#ffffffe6"/>
                <y:Property class="com.yworks.yfiles.bpmn.view.BPMNTypeEnum" name="com.yworks.bpmn.type" value="ARTIFACT_TYPE_GROUP"/>
              </y:StyleProperties>
              <y:State autoResize="true" closed="false" closedHeight="80.0" closedWidth="100.0"/>
              <y:Insets bottom="15" bottomF="15.0" left="15" leftF="15.0" right="15" rightF="15.0" top="15" topF="15.0"/>
              <y:BorderInsets bottom="15" bottomF="15.223949612660817" left="0" leftF="0.0" right="7" rightF="6.67914032869794" top="14" topF="14.409365819854656"/>
            </y:GenericGroupNode>
            <y:GenericGroupNode configuration="com.yworks.bpmn.Artifact.withShadow">
              <y:Geometry height="55.0" width="85.0" x="28.693206454409392" y="265.7496980302277"/>
              <y:Fill color="#FFFFFFE6" transparent="false"/>
              <y:BorderStyle color="#000000" type="dashed_dotted" width="1.0"/>
              <y:NodeLabel alignment="center" autoSizePolicy="content" fontFamily="Dialog" fontSize="12" fontStyle="plain" hasBackgroundColor="false" hasLineColor="false" hasText="false" height="4.0" modelName="custom" textColor="#000000" visible="true" width="4.0" x="40.5" y="47.0">
                <y:LabelModel>
                  <y:SmartNodeLabelModel distance="4.0"/>
                </y:LabelModel>
                <y:ModelParameter>
                  <y:SmartNodeLabelModelParameter labelRatioX="0.0" labelRatioY="0.5" nodeRatioX="0.0" nodeRatioY="0.5" offsetX="0.0" offsetY="-4.0" upX="0.0" upY="-1.0"/>
                </y:ModelParameter>
              </y:NodeLabel>
              <y:StyleProperties>
                <y:Property class="java.awt.Color" name="com.yworks.bpmn.icon.line.color" value="#000000"/>
                <y:Property class="java.awt.Color" name="com.yworks.bpmn.icon.fill2" value="#d4d4d4cc"/>
                <y:Property class="java.awt.Color" name="com.yworks.bpmn.icon.fill" value="#ffffffe6"/>
                <y:Property class="com.yworks.yfiles.bpmn.view.BPMNTypeEnum" name="com.yworks.bpmn.type" value="ARTIFACT_TYPE_GROUP"/>
              </y:StyleProperties>
              <y:State autoResize="true" closed="false" closedHeight="80.0" closedWidth="100.0"/>
              <y:Insets bottom="15" bottomF="15.0" left="15" leftF="15.0" right="15" rightF="15.0" top="15" topF="15.0"/>
              <y:BorderInsets bottom="0" bottomF="0.0" left="0" leftF="0.0" right="0" rightF="0.0" top="0" topF="0.0"/>
            </y:GenericGroupNode>
          </y:Realizers>
        </y:ProxyAutoBoundsNode>
      </data>
      <graph edgedefault="directed" id="n8:">
        <node id="n8::n0">
          <data key="d6">
            <y:GenericNode configuration="com.yworks.entityRelationship.big_entity">
              <y:Geometry height="119.46236737400534" width="245.7899295608458" x="1379.9216431254515" y="-1187.2825437673418"/>
              <y:Fill color="#FFFFFF" transparent="false"/>
              <y:BorderStyle color="#000000" type="line" width="1.0"/>
              <y:NodeLabel alignment="center" autoSizePolicy="content" configuration="com.yworks.entityRelationship.label.name" fontFamily="Dialog" fontSize="30" fontStyle="plain" hasBackgroundColor="false" hasLineColor="false" height="39.33203125" modelName="internal" modelPosition="t" textColor="#000000" visible="true" width="253.43359375" x="-3.8218320945770756" y="4.0">SmsReceiverCont</y:NodeLabel>
              <y:NodeLabel alignment="left" autoSizePolicy="content" configuration="com.yworks.entityRelationship.label.attributes" fontFamily="Dialog" fontSize="12" fontStyle="plain" hasBackgroundColor="false" hasLineColor="false" hasText="false" height="4.0" modelName="custom" textColor="#000000" visible="true" width="4.0" x="2.0" y="51.33203125">
                <y:LabelModel>
                  <y:ErdAttributesNodeLabelModel/>
                </y:LabelModel>
                <y:ModelParameter>
                  <y:ErdAttributesNodeLabelModelParameter/>
                </y:ModelParameter>
              </y:NodeLabel>
              <y:StyleProperties>
                <y:Property class="java.lang.Boolean" name="y.view.ShadowNodePainter.SHADOW_PAINTING" value="true"/>
              </y:StyleProperties>
            </y:GenericNode>
          </data>
        </node>
        <node id="n8::n1">
          <data key="d6">
            <y:GenericNode configuration="com.yworks.entityRelationship.big_entity">
              <y:Geometry height="118.2810990137151" width="227.0582204718927" x="1142.5685268732168" y="-1186.6919095871965"/>
              <y:Fill color="#FFFFFF" transparent="false"/>
              <y:BorderStyle color="#000000" type="line" width="1.0"/>
              <y:NodeLabel alignment="center" autoSizePolicy="content" configuration="com.yworks.entityRelationship.label.name" fontFamily="Dialog" fontSize="30" fontStyle="plain" hasBackgroundColor="false" hasLineColor="false" height="39.33203125" modelName="internal" modelPosition="t" textColor="#000000" visible="true" width="202.8525390625" x="12.102840704696291" y="4.0">SmsSendCont</y:NodeLabel>
              <y:NodeLabel alignment="left" autoSizePolicy="content" configuration="com.yworks.entityRelationship.label.attributes" fontFamily="Dialog" fontSize="12" fontStyle="plain" hasBackgroundColor="false" hasLineColor="false" hasText="false" height="4.0" modelName="custom" textColor="#000000" visible="true" width="4.0" x="2.0" y="51.33203125">
                <y:LabelModel>
                  <y:ErdAttributesNodeLabelModel/>
                </y:LabelModel>
                <y:ModelParameter>
                  <y:ErdAttributesNodeLabelModelParameter/>
                </y:ModelParameter>
              </y:NodeLabel>
              <y:StyleProperties>
                <y:Property class="java.lang.Boolean" name="y.view.ShadowNodePainter.SHADOW_PAINTING" value="true"/>
              </y:StyleProperties>
            </y:GenericNode>
          </data>
        </node>
        <node id="n8::n2">
          <data key="d6">
            <y:ShapeNode>
              <y:Geometry height="54.53912466843508" width="54.53912466843508" x="1185.8924435586462" y="-1136.653504767628"/>
              <y:Fill color="#FF0000" transparent="false"/>
              <y:BorderStyle color="#000000" type="line" width="1.0"/>
              <y:NodeLabel alignment="center" autoSizePolicy="content" fontFamily="Dialog" fontSize="40" fontStyle="plain" hasBackgroundColor="false" hasLineColor="false" height="51.109375" modelName="custom" textColor="#000000" visible="true" width="29.29296875" x="12.623077959217653" y="1.7148748342176532">1<y:LabelModel>
                  <y:SmartNodeLabelModel distance="4.0"/>
                </y:LabelModel>
                <y:ModelParameter>
                  <y:SmartNodeLabelModelParameter labelRatioX="0.0" labelRatioY="0.0" nodeRatioX="0.0" nodeRatioY="0.0" offsetX="0.0" offsetY="0.0" upX="0.0" upY="-1.0"/>
                </y:ModelParameter>
              </y:NodeLabel>
              <y:Shape type="ellipse"/>
            </y:ShapeNode>
          </data>
        </node>
        <node id="n8::n3">
          <data key="d6">
            <y:ShapeNode>
              <y:Geometry height="54.53912466843508" width="54.53912466843508" x="1295.3825184570164" y="-1136.6535047676277"/>
              <y:Fill color="#99CC00" transparent="false"/>
              <y:BorderStyle color="#000000" type="line" width="1.0"/>
              <y:NodeLabel alignment="center" autoSizePolicy="content" fontFamily="Dialog" fontSize="40" fontStyle="plain" hasBackgroundColor="false" hasLineColor="false" height="51.109375" modelName="custom" textColor="#000000" visible="true" width="29.29296875" x="12.623077959217426" y="1.7148748342174258">2<y:LabelModel>
                  <y:SmartNodeLabelModel distance="4.0"/>
                </y:LabelModel>
                <y:ModelParameter>
                  <y:SmartNodeLabelModelParameter labelRatioX="0.0" labelRatioY="0.0" nodeRatioX="0.0" nodeRatioY="0.0" offsetX="0.0" offsetY="0.0" upX="0.0" upY="-1.0"/>
                </y:ModelParameter>
              </y:NodeLabel>
              <y:Shape type="ellipse"/>
            </y:ShapeNode>
          </data>
        </node>
        <node id="n8::n4">
          <data key="d6">
            <y:ShapeNode>
              <y:Geometry height="54.53912466843508" width="54.53912466843508" x="1532.49200012579" y="-1136.6535047676275"/>
              <y:Fill color="#FF0000" transparent="false"/>
              <y:BorderStyle color="#000000" type="line" width="1.0"/>
              <y:NodeLabel alignment="center" autoSizePolicy="content" fontFamily="Dialog" fontSize="40" fontStyle="plain" hasBackgroundColor="false" hasLineColor="false" height="51.109375" modelName="custom" textColor="#000000" visible="true" width="29.29296875" x="12.623077959217426" y="1.7148748342174258">1<y:LabelModel>
                  <y:SmartNodeLabelModel distance="4.0"/>
                </y:LabelModel>
                <y:ModelParameter>
                  <y:SmartNodeLabelModelParameter labelRatioX="0.0" labelRatioY="0.0" nodeRatioX="0.0" nodeRatioY="0.0" offsetX="0.0" offsetY="0.0" upX="0.0" upY="-1.0"/>
                </y:ModelParameter>
              </y:NodeLabel>
              <y:Shape type="ellipse"/>
            </y:ShapeNode>
          </data>
        </node>
        <node id="n8::n5">
          <data key="d6">
            <y:ShapeNode>
              <y:Geometry height="54.53912466843508" width="54.53912466843508" x="1404.8725933553867" y="-1136.6535047676273"/>
              <y:Fill color="#99CC00" transparent="false"/>
              <y:BorderStyle color="#000000" type="line" width="1.0"/>
              <y:NodeLabel alignment="center" autoSizePolicy="content" fontFamily="Dialog" fontSize="40" fontStyle="plain" hasBackgroundColor="false" hasLineColor="false" height="51.109375" modelName="custom" textColor="#000000" visible="true" width="29.29296875" x="12.623077959217653" y="1.7148748342176532">2<y:LabelModel>
                  <y:SmartNodeLabelModel distance="4.0"/>
                </y:LabelModel>
                <y:ModelParameter>
                  <y:SmartNodeLabelModelParameter labelRatioX="0.0" labelRatioY="0.0" nodeRatioX="0.0" nodeRatioY="0.0" offsetX="0.0" offsetY="0.0" upX="0.0" upY="-1.0"/>
                </y:ModelParameter>
              </y:NodeLabel>
              <y:Shape type="ellipse"/>
            </y:ShapeNode>
          </data>
        </node>
      </graph>
    </node>
    <node id="n9">
      <data key="d6">
        <y:ShapeNode>
          <y:Geometry height="41.29343719028742" width="165.88567523957636" x="1126.8561859232348" y="-1257.985346777484"/>
          <y:Fill hasColor="false" transparent="false"/>
          <y:BorderStyle color="#000000" type="line" width="2.0"/>
          <y:NodeLabel alignment="center" autoSizePolicy="content" fontFamily="Dialog" fontSize="30" fontStyle="plain" hasBackgroundColor="false" hasLineColor="false" height="39.33203125" modelName="custom" textColor="#000000" visible="true" width="62.59375" x="51.64596261978818" y="0.9807029701437386">sms<y:LabelModel>
              <y:SmartNodeLabelModel distance="4.0"/>
            </y:LabelModel>
            <y:ModelParameter>
              <y:SmartNodeLabelModelParameter labelRatioX="0.0" labelRatioY="0.0" nodeRatioX="0.0" nodeRatioY="0.0" offsetX="0.0" offsetY="0.0" upX="0.0" upY="-1.0"/>
            </y:ModelParameter>
          </y:NodeLabel>
          <y:Shape type="rectangle"/>
        </y:ShapeNode>
      </data>
    </node>
    <node id="n10">
      <data key="d5"/>
      <data key="d6">
        <y:ShapeNode>
          <y:Geometry height="2.77013260388253" width="1.0" x="679.1181299990369" y="-1740.3041081528022"/>
          <y:Fill hasColor="false" transparent="false"/>
          <y:BorderStyle color="#000000" type="line" width="1.0"/>
          <y:NodeLabel alignment="center" autoSizePolicy="content" fontFamily="Dialog" fontSize="12" fontStyle="plain" hasBackgroundColor="false" hasLineColor="false" hasText="false" height="4.0" modelName="custom" textColor="#000000" visible="true" width="4.0" x="-1.5" y="-0.6149336980588487">
            <y:LabelModel>
              <y:SmartNodeLabelModel distance="4.0"/>
            </y:LabelModel>
            <y:ModelParameter>
              <y:SmartNodeLabelModelParameter labelRatioX="0.0" labelRatioY="0.0" nodeRatioX="0.0" nodeRatioY="0.0" offsetX="0.0" offsetY="0.0" upX="0.0" upY="-1.0"/>
            </y:ModelParameter>
          </y:NodeLabel>
          <y:Shape type="rectangle"/>
        </y:ShapeNode>
      </data>
    </node>
    <edge id="n0::e0" source="n0::n2" target="n0::n0">
      <data key="d10">
        <y:PolyLineEdge>
          <y:Path sx="0.0" sy="0.0" tx="-20.499078188327076" ty="0.24983868840308787"/>
          <y:LineStyle color="#000000" type="line" width="4.0"/>
          <y:Arrows source="none" target="white_delta"/>
          <y:BendStyle smoothed="false"/>
        </y:PolyLineEdge>
      </data>
    </edge>
    <edge id="n0::e1" source="n0::n3" target="n0::n1">
      <data key="d10">
        <y:PolyLineEdge>
          <y:Path sx="120.20070911161633" sy="-13.97558249432899" tx="0.0" ty="0.0"/>
          <y:LineStyle color="#000000" type="line" width="4.0"/>
          <y:Arrows source="none" target="white_delta"/>
          <y:BendStyle smoothed="false"/>
        </y:PolyLineEdge>
      </data>
    </edge>
    <edge id="n0::e2" source="n0::n4" target="n0::n1">
      <data key="d10">
        <y:PolyLineEdge>
          <y:Path sx="0.0" sy="0.0" tx="37.63228601047664" ty="-0.9617248973502228"/>
          <y:LineStyle color="#000000" type="line" width="4.0"/>
          <y:Arrows source="none" target="white_delta"/>
          <y:BendStyle smoothed="false"/>
        </y:PolyLineEdge>
      </data>
    </edge>
    <edge id="n0::e3" source="n0::n5" target="n0::n1">
      <data key="d10">
        <y:PolyLineEdge>
          <y:Path sx="0.0" sy="0.0" tx="0.0" ty="0.0"/>
          <y:LineStyle color="#000000" type="line" width="4.0"/>
          <y:Arrows source="none" target="white_delta"/>
          <y:BendStyle smoothed="false"/>
        </y:PolyLineEdge>
      </data>
    </edge>
    <edge id="n4::e0" source="n4::n0" target="n4::n1">
      <data key="d10">
        <y:PolyLineEdge>
          <y:Path sx="0.0" sy="0.0" tx="0.0" ty="0.0"/>
          <y:LineStyle color="#000000" type="line" width="7.0"/>
          <y:Arrows source="white_delta" target="none"/>
          <y:BendStyle smoothed="false"/>
        </y:PolyLineEdge>
      </data>
    </edge>
    <edge id="n4::e1" source="n4::n2" target="n4::n3">
      <data key="d10">
        <y:PolyLineEdge>
          <y:Path sx="0.0" sy="0.0" tx="0.0" ty="0.0"/>
          <y:LineStyle color="#000000" type="dashed" width="4.0"/>
          <y:Arrows source="delta" target="none"/>
          <y:BendStyle smoothed="false"/>
        </y:PolyLineEdge>
      </data>
    </edge>
    <edge id="n0::e4" source="n0::n6" target="n0::n1">
      <data key="d10">
        <y:BezierEdge>
          <y:Path sx="0.0" sy="0.0" tx="0.0" ty="0.0"/>
          <y:LineStyle color="#000000" type="line" width="4.0"/>
          <y:Arrows source="none" target="white_delta"/>
        </y:BezierEdge>
      </data>
    </edge>
    <edge id="e0" source="n0::n2" target="n2::n2">
      <data key="d10">
        <y:PolyLineEdge>
          <y:Path sx="0.0" sy="0.0" tx="0.0" ty="0.0"/>
          <y:LineStyle color="#000000" type="line" width="3.0"/>
          <y:Arrows source="none" target="delta"/>
          <y:BendStyle smoothed="false"/>
        </y:PolyLineEdge>
      </data>
    </edge>
    <edge id="e1" source="n0::n3" target="n2::n2">
      <data key="d10">
        <y:PolyLineEdge>
          <y:Path sx="-27.93431033307354" sy="-0.3019363302446436" tx="0.0" ty="0.0"/>
          <y:LineStyle color="#000000" type="line" width="3.0"/>
          <y:Arrows source="none" target="delta"/>
          <y:BendStyle smoothed="false"/>
        </y:PolyLineEdge>
      </data>
    </edge>
    <edge id="e2" source="n0::n6" target="n2::n2">
      <data key="d10">
        <y:PolyLineEdge>
          <y:Path sx="-118.9220173004122" sy="4.158139182688956" tx="38.19590461433563" ty="-1.2400531814244005"/>
          <y:LineStyle color="#000000" type="line" width="3.0"/>
          <y:Arrows source="none" target="delta"/>
          <y:BendStyle smoothed="false"/>
        </y:PolyLineEdge>
      </data>
    </edge>
    <edge id="e3" source="n0::n4" target="n2::n2">
      <data key="d10">
        <y:PolyLineEdge>
          <y:Path sx="-91.91565486911043" sy="28.659831103066608" tx="0.0" ty="0.0"/>
          <y:LineStyle color="#000000" type="line" width="3.0"/>
          <y:Arrows source="none" target="delta"/>
          <y:BendStyle smoothed="false"/>
        </y:PolyLineEdge>
      </data>
    </edge>
    <edge id="e4" source="n0::n4" target="n2::n1">
      <data key="d10">
        <y:PolyLineEdge>
          <y:Path sx="94.4410100915851" sy="21.980690774368895" tx="85.98113281914812" ty="-9.588978592296598"/>
          <y:LineStyle color="#000000" type="line" width="3.0"/>
          <y:Arrows source="none" target="delta"/>
          <y:BendStyle smoothed="false"/>
        </y:PolyLineEdge>
      </data>
    </edge>
    <edge id="e5" source="n0::n2" target="n2::n0">
      <data key="d10">
        <y:PolyLineEdge>
          <y:Path sx="0.0" sy="0.0" tx="0.0" ty="0.0"/>
          <y:LineStyle color="#000000" type="line" width="3.0"/>
          <y:Arrows source="none" target="delta"/>
          <y:BendStyle smoothed="false"/>
        </y:PolyLineEdge>
      </data>
    </edge>
    <edge id="e6" source="n8::n1" target="n0::n1">
      <data key="d10">
        <y:PolyLineEdge>
          <y:Path sx="-32.422390137003504" sy="0.35039927123534653" tx="0.0" ty="0.0">
            <y:Point x="1223.6752469721596" y="-1791.7754235145394"/>
          </y:Path>
          <y:LineStyle color="#000000" type="line" width="4.0"/>
          <y:Arrows source="none" target="white_delta"/>
          <y:BendStyle smoothed="false"/>
        </y:PolyLineEdge>
      </data>
    </edge>
    <edge id="e7" source="n8::n0" target="n0::n1">
      <data key="d10">
        <y:PolyLineEdge>
          <y:Path sx="68.17393615857327" sy="-11.338096303985594" tx="12.342421280430699" ty="-33.568602267767574">
            <y:Point x="1570.9905440644477" y="-1830.1113021491783"/>
          </y:Path>
          <y:LineStyle color="#000000" type="line" width="4.0"/>
          <y:Arrows source="none" target="white_delta"/>
          <y:BendStyle smoothed="false"/>
        </y:PolyLineEdge>
      </data>
    </edge>
    <edge id="e8" source="n0::n5" target="n2::n2">
      <data key="d10">
        <y:PolyLineEdge>
          <y:Path sx="-159.26540819850928" sy="33.99385545494215" tx="-125.1302723117658" ty="-5.066247871690393"/>
          <y:LineStyle color="#000000" type="line" width="4.0"/>
          <y:Arrows source="none" target="delta"/>
          <y:BendStyle smoothed="false"/>
        </y:PolyLineEdge>
      </data>
    </edge>
    <edge id="n0::e5" source="n0::n0" target="n0::n1">
      <data key="d10">
        <y:PolyLineEdge>
          <y:Path sx="0.0" sy="0.0" tx="0.0" ty="0.0"/>
          <y:LineStyle color="#000000" type="line" width="4.0"/>
          <y:Arrows source="none" target="white_delta"/>
          <y:BendStyle smoothed="false"/>
        </y:PolyLineEdge>
      </data>
    </edge>
    <edge id="e9" source="n0::n0" target="n2::n1">
      <data key="d10">
        <y:PolyLineEdge>
          <y:Path sx="0.0" sy="0.0" tx="0.0" ty="0.0"/>
          <y:LineStyle color="#000000" type="line" width="4.0"/>
          <y:Arrows source="none" target="delta"/>
          <y:BendStyle smoothed="false"/>
        </y:PolyLineEdge>
      </data>
    </edge>
    <edge id="e10" source="n10" target="n10">
      <data key="d10">
        <y:BezierEdge>
          <y:Path sx="0.0" sy="0.0" tx="0.0" ty="0.0">
            <y:Point x="665.1181299990369" y="-1825.437762237762"/>
            <y:Point x="583.7656553691876" y="-1859.494713286713"/>
            <y:Point x="469.88461538461536" y="-1862.1346153846152"/>
            <y:Point x="406.75932867132866" y="-1867.0111888111885"/>
            <y:Point x="415.3076923076923" y="-1698.4038461538462"/>
            <y:Point x="431.23776223776224" y="-1715.6839160839158"/>
            <y:Point x="440.0990982940556" y="-1572.6713286713284"/>
            <y:Point x="650.5454545454546" y="-1422.6780122071323"/>
            <y:Point x="456.06401392571325" y="-1265.0279720279718"/>
            <y:Point x="327.0260813767006" y="-1040.6132867132865"/>
            <y:Point x="604.0355060263091" y="-1055.497902097902"/>
            <y:Point x="706.1452012768232" y="-1027.3825174825174"/>
            <y:Point x="737.1545454545454" y="-1326.0293706293703"/>
            <y:Point x="873.5790209790209" y="-1284.9832167832164"/>
            <y:Point x="937.0251748251749" y="-1488.0069930069928"/>
            <y:Point x="1037.7658105178882" y="-1418.2636363636361"/>
            <y:Point x="1037.7658105178882" y="-1273.3426573426573"/>
            <y:Point x="989.9846153846154" y="-1237.3386281823402"/>
            <y:Point x="941.4162318689171" y="-1030.6720279720278"/>
            <y:Point x="1121.3566433566434" y="-1018.9132867132864"/>
            <y:Point x="1121.3566433566434" y="-1256.7132867132864"/>
            <y:Point x="1184.5482517482517" y="-1291.6349650349648"/>
            <y:Point x="1280.9986013986013" y="-1291.6349650349648"/>
            <y:Point x="1271.020979020979" y="-1053.8349650349649"/>
            <y:Point x="1362.3443884835417" y="-1043.911888111888"/>
            <y:Point x="1402.393006993007" y="-1053.8349650349649"/>
            <y:Point x="1488.8657342657343" y="-1070.3734265734263"/>
            <y:Point x="1488.8657342657343" y="-1200.1734265734262"/>
            <y:Point x="1477.2251748251747" y="-1308.2643356643355"/>
            <y:Point x="1432.1421556896044" y="-1436.3104895104893"/>
            <y:Point x="1442.3034965034965" y="-1514.4685314685312"/>
            <y:Point x="1375.911386458835" y="-1684.2153846153844"/>
            <y:Point x="1365.8083916083915" y="-1707.3692307692306"/>
            <y:Point x="1246.3496503496501" y="-1707.3692307692306"/>
            <y:Point x="1186.2111888111888" y="-1612.5100472599888"/>
            <y:Point x="1006.6139860139859" y="-1516.1314685314683"/>
            <y:Point x="950.6595180873084" y="-1567.4006993006992"/>
            <y:Point x="927.8690578598981" y="-1690.73986013986"/>
            <y:Point x="854.4159010039886" y="-1720.6727272727271"/>
            <y:Point x="732.2293706293706" y="-1699.0545454545452"/>
          </y:Path>
          <y:LineStyle color="#000000" type="dashed" width="5.0"/>
          <y:Arrows source="none" target="none"/>
        </y:BezierEdge>
      </data>
    </edge>
  </graph>
  <data key="d7">
    <y:Resources/>
  </data>
</graphml>
